lab5/simulation/qsim/gA6_lab5.msim.vcd
$comment
	File created using the following command:
		vcd file gA6_lab5.msim.vcd -direction
$end
$date
	Wed Nov 29 18:55:08 2017
$end
$version
	ModelSim Version 10.1d
$end
$timescale
	1ps
$end
$scope module gA6_lab5_vlg_vec_tst $end
$var reg 1 ! clk $end
$var reg 6 " player_sum [5:0] $end
$var reg 1 # rst $end
$var reg 6 $ sum [5:0] $end
$var reg 1 % turn $end
$var wire 1 & dealer_wins $end
$var wire 1 ' done $end
$var wire 1 ( hit $end
$var wire 1 ) led_display1 [6] $end
$var wire 1 * led_display1 [5] $end
$var wire 1 + led_display1 [4] $end
$var wire 1 , led_display1 [3] $end
$var wire 1 - led_display1 [2] $end
$var wire 1 . led_display1 [1] $end
$var wire 1 / led_display1 [0] $end
$var wire 1 0 led_display2 [6] $end
$var wire 1 1 led_display2 [5] $end
$var wire 1 2 led_display2 [4] $end
$var wire 1 3 led_display2 [3] $end
$var wire 1 4 led_display2 [2] $end
$var wire 1 5 led_display2 [1] $end
$var wire 1 6 led_display2 [0] $end
$var wire 1 7 led_display3 [6] $end
$var wire 1 8 led_display3 [5] $end
$var wire 1 9 led_display3 [4] $end
$var wire 1 : led_display3 [3] $end
$var wire 1 ; led_display3 [2] $end
$var wire 1 < led_display3 [1] $end
$var wire 1 = led_display3 [0] $end
$var wire 1 > led_display4 [6] $end
$var wire 1 ? led_display4 [5] $end
$var wire 1 @ led_display4 [4] $end
$var wire 1 A led_display4 [3] $end
$var wire 1 B led_display4 [2] $end
$var wire 1 C led_display4 [1] $end
$var wire 1 D led_display4 [0] $end
$var wire 1 E player_wins $end
$var wire 1 F state_out [1] $end
$var wire 1 G state_out [0] $end
$var wire 1 H sum_out [5] $end
$var wire 1 I sum_out [4] $end
$var wire 1 J sum_out [3] $end
$var wire 1 K sum_out [2] $end
$var wire 1 L sum_out [1] $end
$var wire 1 M sum_out [0] $end
$var wire 1 N sampler $end
$scope module i1 $end
$var wire 1 O gnd $end
$var wire 1 P vcc $end
$var wire 1 Q unknown $end
$var tri1 1 R devclrn $end
$var tri1 1 S devpor $end
$var tri1 1 T devoe $end
$var wire 1 U turn~combout $end
$var wire 1 V clk~combout $end
$var wire 1 W clk~clkctrl_outclk $end
$var wire 1 X inst|LessThan0~0_combout $end
$var wire 1 Y inst|LessThan0~1_combout $end
$var wire 1 Z inst|computer:state[0]~0_combout $end
$var wire 1 [ rst~combout $end
$var wire 1 \ rst~clkctrl_outclk $end
$var wire 1 ] inst|computer:state[0]~regout $end
$var wire 1 ^ inst|computer:state[1]~0_combout $end
$var wire 1 _ inst|computer:state[1]~regout $end
$var wire 1 ` inst|Mux0~0_combout $end
$var wire 1 a inst|hit~regout $end
$var wire 1 b inst|Mux1~0_combout $end
$var wire 1 c inst|done~regout $end
$var wire 1 d inst1|p_win~2_combout $end
$var wire 1 e inst1|p_win~6_combout $end
$var wire 1 f inst1|dealer:p_win~regout $end
$var wire 1 g inst1|Equal0~1_combout $end
$var wire 1 h inst1|Equal0~0_combout $end
$var wire 1 i inst1|Equal0~2_combout $end
$var wire 1 j inst1|LessThan3~1_cout $end
$var wire 1 k inst1|LessThan3~3_cout $end
$var wire 1 l inst1|LessThan3~5_cout $end
$var wire 1 m inst1|LessThan3~7_cout $end
$var wire 1 n inst1|LessThan3~9_cout $end
$var wire 1 o inst1|LessThan3~10_combout $end
$var wire 1 p inst1|p_win~3_combout $end
$var wire 1 q inst1|LessThan2~1_cout $end
$var wire 1 r inst1|LessThan2~3_cout $end
$var wire 1 s inst1|LessThan2~5_cout $end
$var wire 1 t inst1|LessThan2~7_cout $end
$var wire 1 u inst1|LessThan2~9_cout $end
$var wire 1 v inst1|LessThan2~10_combout $end
$var wire 1 w inst1|p_win~0_combout $end
$var wire 1 x inst1|p_win~4_combout $end
$var wire 1 y inst1|p_win~5_combout $end
$var wire 1 z inst1|p_win~7_combout $end
$var wire 1 { inst1|player_wins~feeder_combout $end
$var wire 1 | inst1|player_wins~regout $end
$var wire 1 } inst1|d_win~0_combout $end
$var wire 1 ~ inst1|dealer_wins~regout $end
$var wire 1 !! inst1|p_win~1_combout $end
$var wire 1 "! inst1|led_display1~6_combout $end
$var wire 1 #! inst1|led_display1~4_combout $end
$var wire 1 $! inst1|dealer:d_win~regout $end
$var wire 1 %! inst1|led_display1[0]~7_combout $end
$var wire 1 &! inst1|led_display1[0]~5_combout $end
$var wire 1 '! inst1|led_display3~3_combout $end
$var wire 1 (! inst1|led_display3~2_combout $end
$var wire 1 )! inst1|led_display4[3]~feeder_combout $end
$var wire 1 *! sum~combout [5] $end
$var wire 1 +! sum~combout [4] $end
$var wire 1 ,! sum~combout [3] $end
$var wire 1 -! sum~combout [2] $end
$var wire 1 .! sum~combout [1] $end
$var wire 1 /! sum~combout [0] $end
$var wire 1 0! inst|sum_out [5] $end
$var wire 1 1! inst|sum_out [4] $end
$var wire 1 2! inst|sum_out [3] $end
$var wire 1 3! inst|sum_out [2] $end
$var wire 1 4! inst|sum_out [1] $end
$var wire 1 5! inst|sum_out [0] $end
$var wire 1 6! inst1|led_display3 [6] $end
$var wire 1 7! inst1|led_display3 [5] $end
$var wire 1 8! inst1|led_display3 [4] $end
$var wire 1 9! inst1|led_display3 [3] $end
$var wire 1 :! inst1|led_display3 [2] $end
$var wire 1 ;! inst1|led_display3 [1] $end
$var wire 1 <! inst1|led_display3 [0] $end
$var wire 1 =! inst1|led_display4 [6] $end
$var wire 1 >! inst1|led_display4 [5] $end
$var wire 1 ?! inst1|led_display4 [4] $end
$var wire 1 @! inst1|led_display4 [3] $end
$var wire 1 A! inst1|led_display4 [2] $end
$var wire 1 B! inst1|led_display4 [1] $end
$var wire 1 C! inst1|led_display4 [0] $end
$var wire 1 D! player_sum~combout [5] $end
$var wire 1 E! player_sum~combout [4] $end
$var wire 1 F! player_sum~combout [3] $end
$var wire 1 G! player_sum~combout [2] $end
$var wire 1 H! player_sum~combout [1] $end
$var wire 1 I! player_sum~combout [0] $end
$var wire 1 J! inst1|led_display1 [6] $end
$var wire 1 K! inst1|led_display1 [5] $end
$var wire 1 L! inst1|led_display1 [4] $end
$var wire 1 M! inst1|led_display1 [3] $end
$var wire 1 N! inst1|led_display1 [2] $end
$var wire 1 O! inst1|led_display1 [1] $end
$var wire 1 P! inst1|led_display1 [0] $end
$upscope $end
$upscope $end
$enddefinitions $end
#0
$dumpvars
0!
b10101 "
0#
b0 $
0%
0&
0'
0(
0/
0.
0-
1,
0+
0*
0)
06
05
04
03
02
11
10
1=
0<
0;
1:
19
18
17
1D
1C
1B
0A
0@
0?
1>
0E
0G
0F
0M
0L
0K
0J
0I
0H
xN
0O
1P
xQ
1R
1S
1T
0U
0V
0W
0X
0Y
0Z
0[
0\
0]
0^
0_
0`
0a
0b
0c
0d
0e
0f
0g
0h
0i
0j
1k
0l
1m
0n
0o
0p
1q
0r
1s
0t
1u
1v
0w
0x
1y
1z
1{
0|
0}
0~
1!!
1"!
1#!
0$!
1%!
1&!
0'!
0(!
1)!
0/!
0.!
0-!
0,!
0+!
0*!
05!
04!
03!
02!
01!
00!
z<!
0;!
z:!
z9!
z8!
z7!
z6!
zC!
zB!
zA!
0@!
z?!
z>!
z=!
1I!
0H!
1G!
0F!
1E!
0D!
0P!
zO!
zN!
zM!
zL!
zK!
zJ!
$end
#10000
1%
1U
0N
1Z
#20000
1!
1V
1W
1N
1@!
1P!
1|
1f
1]
1`
1A
16
1/
1.
1)
1E
1G
0B
0C
0,
0D
#30000
b1000 $
b1010 $
1.!
1,!
0N
1X
#40000
0!
0V
0W
1N
#60000
1!
1V
1W
0N
14!
12!
1a
1r
0k
1t
0m
1L
1J
1(
#80000
b11010 $
b10010 $
0!
0,!
1+!
0V
0W
1N
1Y
0`
1^
0Z
#100000
1!
1V
1W
0N
02!
11!
0a
1_
0]
0t
1m
0u
1n
1b
0^
0J
1I
0(
1F
0G
1u
0n
0v
1o
1v
0o
0!!
1x
1p
1!!
0x
0p
1'!
0z
1}
0'!
1z
0}
1(!
0)!
0{
0(!
1)!
1{
#110000
0%
0U
1N
#120000
0!
0V
0W
0N
#130000
b10000 $
b0 $
0.!
0+!
1N
0X
0Y
#140000
1!
1V
1W
0N
04!
01!
1c
0_
0r
1k
0b
0L
0I
1'
0F
#150000
b101 "
b1 "
b0 "
0I!
0G!
0E!
1N
0q
1h
1g
1r
1i
0s
1t
0u
0v
1x
1'!
0"!
1}
1(!
0#!
#160000
b1000 $
0!
1,!
0V
0W
0N
1X
#170000
1%
1U
1N
1Z
#180000
1!
1V
1W
0N
1;!
0P!
1$!
1~
12!
0c
1]
0m
0g
1`
1<
1-
0/
0.
0)
1&
1J
0'
1G
01
07
08
0:
0=
0>
1,
1D
1n
0i
1o
0y
0!!
1p
1"!
1y
1#!
0z
0)!
0{
#200000
b1001 $
b1011 $
0!
1/!
1.!
0V
0W
1N
#220000
b10000 "
1!
1E!
1V
1W
0N
1u
0n
1v
0o
1!!
0x
0p
0'!
1z
0}
0(!
1)!
1{
0@!
1P!
0|
14!
15!
0f
1a
0k
0h
1j
0A
06
1/
1.
1)
0E
1L
1M
1(
1B
1C
0,
0D
1l
#230000
b1111 $
b11111 $
b10111 $
b10110 $
0/!
1-!
0,!
1+!
1N
1Y
0`
1^
0Z
#240000
0!
0V
0W
0N
#260000
1!
1V
1W
1N
1@!
0;!
0$!
0~
1|
05!
02!
13!
11!
1f
0a
1_
0]
0j
1w
0u
1n
1b
0^
1A
16
0<
0-
0&
1E
0M
0J
1K
1I
0(
1F
0G
0B
0C
11
17
18
1:
1=
1>
0v
1o
1p
#270000
0%
0U
0N
#280000
0!
0V
0W
1N
#290000
b10100 $
0.!
0N
#300000
1!
1V
1W
1N
04!
1c
0_
0w
1k
1h
0b
0L
1'
0F
0!!
1x
1'!
0z
1}
1(!
0)!
0{
#320000
0!
0V
0W
0N
#330000
b10100 "
1G!
1N
0l
1g
1m
1i
0n
0o
1!!
0p
0"!
1z
0#!
1)!
1{
#340000
1!
1V
1W
0N
1;!
0P!
1$!
1~
0c
1<
1-
0/
0.
0)
1&
0'
01
07
08
0:
0=
0>
1,
1D
#350000
b10000 $
0-!
1N
0X
0Y
#360000
1%
0!
1U
0V
0W
0N
1Z
#380000
1!
1V
1W
1N
03!
1]
1s
0g
1`
0K
1G
0t
0i
1u
0y
1v
0x
0'!
1"!
1y
0(!
1#!
0}
#400000
0!
0V
0W
0N
#410000
b10010 $
b10110 $
1.!
1-!
1N
1X
1Y
0`
1^
0Z
#420000
b11100 "
b11000 "
1!
0G!
1F!
1V
1W
0N
0s
1d
1'!
1e
1(!
1}
0z
0)!
0{
0;!
1P!
0$!
0~
14!
13!
1_
0]
1w
0k
0h
1l
1b
0^
0<
0-
1/
1.
1)
0&
1L
1K
1F
0G
11
17
18
1:
1=
1>
0,
0D
#440000
b110 $
b1110 $
b1111 $
b1011 $
0!
1/!
0-!
1,!
0+!
0V
0W
1N
0Y
#460000
1!
1V
1W
0N
0@!
1;!
1$!
1~
0|
15!
12!
03!
01!
0f
1c
0_
1j
0w
1t
0m
1g
0b
1Z
0A
06
1<
1-
1&
0E
1M
1J
0K
0I
1'
0F
1B
1C
01
07
08
0:
0=
0>
#480000
0!
0V
0W
1N
#500000
b1001 $
b1 $
1!
0.!
0,!
1V
1W
0N
04!
02!
0c
1]
0t
1m
0g
1`
0L
0J
0'
1G
#520000
0!
0V
0W
1N
#540000
1!
1V
1W
0N
1a
1(
#560000
0!
0V
0W
1N
#580000
1!
1V
1W
0N
#590000
b11010 "
b10010 "
b10110 "
1H!
1G!
0F!
1N
0r
1k
1s
0l
1t
0m
0t
1m
#600000
0!
0V
0W
0N
#620000
b10001 $
b10000 $
b10100 $
b10110 $
1!
0/!
1.!
1-!
1+!
1V
1W
1N
1Y
0`
1^
0Z
14!
05!
13!
11!
1w
1r
0k
1h
0j
1g
1L
0M
1K
1I
0s
1l
1i
1k
1t
0m
0l
0u
1n
1m
0v
1o
0n
1p
0o
0p
#640000
1#
0!
1[
0V
0W
1\
0N
04!
03!
01!
0a
0]
0w
0r
0h
1s
0g
1u
0i
0^
1Z
0L
0K
0I
0(
0G
1x
0t
1v
0x
#650000
b10100 $
0.!
1N
#660000
1!
1V
1W
0N
#680000
b10111 "
b111 "
b101 "
b1101 "
b1001 "
0!
1I!
0H!
0G!
1F!
0E!
0V
0W
1N
1q
1r
0d
0r
0s
0'!
0e
1s
0(!
0}
1z
1)!
1{
#700000
0%
1!
0U
1V
1W
0N
0Z
1@!
0;!
0$!
0~
1|
1f
1A
16
0<
0-
0&
1E
0B
0C
11
17
18
1:
1=
1>
#710000
b100 $
b101 $
b111 $
1/!
1.!
0+!
1N
0Y
#720000
0!
0V
0W
0N
#740000
b1011 "
b1111 "
1!
1H!
1G!
1V
1W
1N
#760000
0!
0V
0W
0N
#770000
b1111 $
0#
b1101 $
0.!
1,!
0[
0\
1N
#780000
1!
1V
1W
0N
15!
12!
13!
0q
1g
1M
1J
1K
#800000
0!
0V
0W
1N
#820000
1!
1V
1W
0N
#840000
0!
0V
0W
1N
#860000
b1001 $
b11001 $
b11000 $
b11010 $
1!
0/!
1.!
0-!
1+!
1V
1W
0N
1Y
14!
05!
03!
11!
1w
1r
1q
0g
0u
1n
1L
0M
0K
1I
0r
0v
1o
1p
#880000
0!
0V
0W
1N
#890000
b1110 "
b11110 "
b10110 "
b10100 "
b11000 $
0.!
0I!
0H!
0F!
1E!
0N
0q
1r
0k
1t
0m
1u
0n
0u
1n
1v
0o
0v
1o
0p
1p
#900000
1!
1V
1W
1N
04!
1k
1h
0L
#910000
1%
1U
0N
1Z
#920000
b1000 $
b1001 $
b1011 $
0!
1/!
1.!
0+!
0V
0W
1N
0Y
#940000
1!
1V
1W
0N
14!
15!
01!
1]
0w
0k
0h
1j
1u
0n
1`
1L
1M
0I
1G
0!!
1x
1v
0o
1'!
0z
1}
1!!
0x
0p
1(!
0)!
0{
0'!
1z
0}
0(!
1)!
1{
#950000
b1001 $
0.!
1N
#960000
0!
0V
0W
0N
#980000
1!
1V
1W
1N
04!
1a
0L
1(
