lab2/simulation/qsim/g06_lab2.msim.vcd
$comment
	File created using the following command:
		vcd file g06_lab2.msim.vcd -direction
$end
$date
	Thu Oct 19 15:08:13 2017
$end
$version
	ModelSim Version 10.1d
$end
$timescale
	1ps
$end
$scope module g06_lab2_vlg_vec_tst $end
$var reg 1 ! clk $end
$var reg 6 " N [5:0] $end
$var reg 16 # seed [15:0] $end
$var wire 1 $ P_EN [51] $end
$var wire 1 % P_EN [50] $end
$var wire 1 & P_EN [49] $end
$var wire 1 ' P_EN [48] $end
$var wire 1 ( P_EN [47] $end
$var wire 1 ) P_EN [46] $end
$var wire 1 * P_EN [45] $end
$var wire 1 + P_EN [44] $end
$var wire 1 , P_EN [43] $end
$var wire 1 - P_EN [42] $end
$var wire 1 . P_EN [41] $end
$var wire 1 / P_EN [40] $end
$var wire 1 0 P_EN [39] $end
$var wire 1 1 P_EN [38] $end
$var wire 1 2 P_EN [37] $end
$var wire 1 3 P_EN [36] $end
$var wire 1 4 P_EN [35] $end
$var wire 1 5 P_EN [34] $end
$var wire 1 6 P_EN [33] $end
$var wire 1 7 P_EN [32] $end
$var wire 1 8 P_EN [31] $end
$var wire 1 9 P_EN [30] $end
$var wire 1 : P_EN [29] $end
$var wire 1 ; P_EN [28] $end
$var wire 1 < P_EN [27] $end
$var wire 1 = P_EN [26] $end
$var wire 1 > P_EN [25] $end
$var wire 1 ? P_EN [24] $end
$var wire 1 @ P_EN [23] $end
$var wire 1 A P_EN [22] $end
$var wire 1 B P_EN [21] $end
$var wire 1 C P_EN [20] $end
$var wire 1 D P_EN [19] $end
$var wire 1 E P_EN [18] $end
$var wire 1 F P_EN [17] $end
$var wire 1 G P_EN [16] $end
$var wire 1 H P_EN [15] $end
$var wire 1 I P_EN [14] $end
$var wire 1 J P_EN [13] $end
$var wire 1 K P_EN [12] $end
$var wire 1 L P_EN [11] $end
$var wire 1 M P_EN [10] $end
$var wire 1 N P_EN [9] $end
$var wire 1 O P_EN [8] $end
$var wire 1 P P_EN [7] $end
$var wire 1 Q P_EN [6] $end
$var wire 1 R P_EN [5] $end
$var wire 1 S P_EN [4] $end
$var wire 1 T P_EN [3] $end
$var wire 1 U P_EN [2] $end
$var wire 1 V P_EN [1] $end
$var wire 1 W P_EN [0] $end
$var wire 1 X rand [29] $end
$var wire 1 Y rand [28] $end
$var wire 1 Z rand [27] $end
$var wire 1 [ rand [26] $end
$var wire 1 \ rand [25] $end
$var wire 1 ] rand [24] $end
$var wire 1 ^ rand [23] $end
$var wire 1 _ rand [22] $end
$var wire 1 ` rand [21] $end
$var wire 1 a rand [20] $end
$var wire 1 b rand [19] $end
$var wire 1 c rand [18] $end
$var wire 1 d rand [17] $end
$var wire 1 e rand [16] $end
$var wire 1 f rand [15] $end
$var wire 1 g rand [14] $end
$var wire 1 h rand [13] $end
$var wire 1 i rand [12] $end
$var wire 1 j rand [11] $end
$var wire 1 k rand [10] $end
$var wire 1 l rand [9] $end
$var wire 1 m rand [8] $end
$var wire 1 n rand [7] $end
$var wire 1 o rand [6] $end
$var wire 1 p rand [5] $end
$var wire 1 q rand [4] $end
$var wire 1 r rand [3] $end
$var wire 1 s rand [2] $end
$var wire 1 t rand [1] $end
$var wire 1 u rand [0] $end
$var wire 1 v sampler $end
$scope module i1 $end
$var wire 1 w gnd $end
$var wire 1 x vcc $end
$var wire 1 y unknown $end
$var tri1 1 z devclrn $end
$var tri1 1 { devpor $end
$var tri1 1 | devoe $end
$var wire 1 } clk~combout $end
$var wire 1 ~ clk~clkctrl_outclk $end
$var wire 1 !! inst|first_adder|LPM_ADD_SUB_component|auto_generated|op_1~1 $end
$var wire 1 "! inst|first_adder|LPM_ADD_SUB_component|auto_generated|op_1~3 $end
$var wire 1 #! inst|first_adder|LPM_ADD_SUB_component|auto_generated|op_1~5 $end
$var wire 1 $! inst|first_adder|LPM_ADD_SUB_component|auto_generated|op_1~7 $end
$var wire 1 %! inst|first_adder|LPM_ADD_SUB_component|auto_generated|op_1~9 $end
$var wire 1 &! inst|first_adder|LPM_ADD_SUB_component|auto_generated|op_1~11 $end
$var wire 1 '! inst|first_adder|LPM_ADD_SUB_component|auto_generated|op_1~13 $end
$var wire 1 (! inst|first_adder|LPM_ADD_SUB_component|auto_generated|op_1~15 $end
$var wire 1 )! inst|first_adder|LPM_ADD_SUB_component|auto_generated|op_1~17 $end
$var wire 1 *! inst|first_adder|LPM_ADD_SUB_component|auto_generated|op_1~19 $end
$var wire 1 +! inst|first_adder|LPM_ADD_SUB_component|auto_generated|op_1~21 $end
$var wire 1 ,! inst|first_adder|LPM_ADD_SUB_component|auto_generated|op_1~23 $end
$var wire 1 -! inst|first_adder|LPM_ADD_SUB_component|auto_generated|op_1~25 $end
$var wire 1 .! inst|first_adder|LPM_ADD_SUB_component|auto_generated|op_1~26_combout $end
$var wire 1 /! inst|first_adder|LPM_ADD_SUB_component|auto_generated|op_1~24_combout $end
$var wire 1 0! inst|first_adder|LPM_ADD_SUB_component|auto_generated|op_1~20_combout $end
$var wire 1 1! inst|first_adder|LPM_ADD_SUB_component|auto_generated|op_1~18_combout $end
$var wire 1 2! inst|first_adder|LPM_ADD_SUB_component|auto_generated|op_1~16_combout $end
$var wire 1 3! inst|first_adder|LPM_ADD_SUB_component|auto_generated|op_1~14_combout $end
$var wire 1 4! inst|first_adder|LPM_ADD_SUB_component|auto_generated|op_1~10_combout $end
$var wire 1 5! inst|first_adder|LPM_ADD_SUB_component|auto_generated|op_1~8_combout $end
$var wire 1 6! inst|first_adder|LPM_ADD_SUB_component|auto_generated|op_1~6_combout $end
$var wire 1 7! inst|first_adder|LPM_ADD_SUB_component|auto_generated|op_1~4_combout $end
$var wire 1 8! inst|second_adder|LPM_ADD_SUB_component|auto_generated|op_1~1 $end
$var wire 1 9! inst|second_adder|LPM_ADD_SUB_component|auto_generated|op_1~3 $end
$var wire 1 :! inst|second_adder|LPM_ADD_SUB_component|auto_generated|op_1~5 $end
$var wire 1 ;! inst|second_adder|LPM_ADD_SUB_component|auto_generated|op_1~7 $end
$var wire 1 <! inst|second_adder|LPM_ADD_SUB_component|auto_generated|op_1~9 $end
$var wire 1 =! inst|second_adder|LPM_ADD_SUB_component|auto_generated|op_1~11 $end
$var wire 1 >! inst|second_adder|LPM_ADD_SUB_component|auto_generated|op_1~13 $end
$var wire 1 ?! inst|second_adder|LPM_ADD_SUB_component|auto_generated|op_1~15 $end
$var wire 1 @! inst|second_adder|LPM_ADD_SUB_component|auto_generated|op_1~17 $end
$var wire 1 A! inst|second_adder|LPM_ADD_SUB_component|auto_generated|op_1~19 $end
$var wire 1 B! inst|second_adder|LPM_ADD_SUB_component|auto_generated|op_1~21 $end
$var wire 1 C! inst|second_adder|LPM_ADD_SUB_component|auto_generated|op_1~23 $end
$var wire 1 D! inst|second_adder|LPM_ADD_SUB_component|auto_generated|op_1~25 $end
$var wire 1 E! inst|second_adder|LPM_ADD_SUB_component|auto_generated|op_1~27 $end
$var wire 1 F! inst|second_adder|LPM_ADD_SUB_component|auto_generated|op_1~29 $end
$var wire 1 G! inst|second_adder|LPM_ADD_SUB_component|auto_generated|op_1~31 $end
$var wire 1 H! inst|second_adder|LPM_ADD_SUB_component|auto_generated|op_1~33 $end
$var wire 1 I! inst|second_adder|LPM_ADD_SUB_component|auto_generated|op_1~35 $end
$var wire 1 J! inst|second_adder|LPM_ADD_SUB_component|auto_generated|op_1~37 $end
$var wire 1 K! inst|second_adder|LPM_ADD_SUB_component|auto_generated|op_1~39 $end
$var wire 1 L! inst|second_adder|LPM_ADD_SUB_component|auto_generated|op_1~41 $end
$var wire 1 M! inst|second_adder|LPM_ADD_SUB_component|auto_generated|op_1~43 $end
$var wire 1 N! inst|second_adder|LPM_ADD_SUB_component|auto_generated|op_1~45 $end
$var wire 1 O! inst|second_adder|LPM_ADD_SUB_component|auto_generated|op_1~47 $end
$var wire 1 P! inst|second_adder|LPM_ADD_SUB_component|auto_generated|op_1~49 $end
$var wire 1 Q! inst|second_adder|LPM_ADD_SUB_component|auto_generated|op_1~51 $end
$var wire 1 R! inst|second_adder|LPM_ADD_SUB_component|auto_generated|op_1~53 $end
$var wire 1 S! inst|second_adder|LPM_ADD_SUB_component|auto_generated|op_1~55 $end
$var wire 1 T! inst|second_adder|LPM_ADD_SUB_component|auto_generated|op_1~56_combout $end
$var wire 1 U! inst|second_adder|LPM_ADD_SUB_component|auto_generated|op_1~54_combout $end
$var wire 1 V! inst|first_adder|LPM_ADD_SUB_component|auto_generated|op_1~22_combout $end
$var wire 1 W! inst|second_adder|LPM_ADD_SUB_component|auto_generated|op_1~52_combout $end
$var wire 1 X! inst|second_adder|LPM_ADD_SUB_component|auto_generated|op_1~50_combout $end
$var wire 1 Y! inst|second_adder|LPM_ADD_SUB_component|auto_generated|op_1~48_combout $end
$var wire 1 Z! inst|second_adder|LPM_ADD_SUB_component|auto_generated|op_1~46_combout $end
$var wire 1 [! inst|second_adder|LPM_ADD_SUB_component|auto_generated|op_1~44_combout $end
$var wire 1 \! inst|first_adder|LPM_ADD_SUB_component|auto_generated|op_1~12_combout $end
$var wire 1 ]! inst|second_adder|LPM_ADD_SUB_component|auto_generated|op_1~42_combout $end
$var wire 1 ^! inst|second_adder|LPM_ADD_SUB_component|auto_generated|op_1~40_combout $end
$var wire 1 _! inst|second_adder|LPM_ADD_SUB_component|auto_generated|op_1~38_combout $end
$var wire 1 `! inst|second_adder|LPM_ADD_SUB_component|auto_generated|op_1~36_combout $end
$var wire 1 a! inst|second_adder|LPM_ADD_SUB_component|auto_generated|op_1~34_combout $end
$var wire 1 b! inst|first_adder|LPM_ADD_SUB_component|auto_generated|op_1~2_combout $end
$var wire 1 c! inst|second_adder|LPM_ADD_SUB_component|auto_generated|op_1~32_combout $end
$var wire 1 d! inst|first_adder|LPM_ADD_SUB_component|auto_generated|op_1~0_combout $end
$var wire 1 e! inst|second_adder|LPM_ADD_SUB_component|auto_generated|op_1~30_combout $end
$var wire 1 f! inst|second_adder|LPM_ADD_SUB_component|auto_generated|op_1~28_combout $end
$var wire 1 g! inst|second_adder|LPM_ADD_SUB_component|auto_generated|op_1~26_combout $end
$var wire 1 h! inst|second_adder|LPM_ADD_SUB_component|auto_generated|op_1~24_combout $end
$var wire 1 i! inst|second_adder|LPM_ADD_SUB_component|auto_generated|op_1~22_combout $end
$var wire 1 j! inst|second_adder|LPM_ADD_SUB_component|auto_generated|op_1~20_combout $end
$var wire 1 k! inst|second_adder|LPM_ADD_SUB_component|auto_generated|op_1~18_combout $end
$var wire 1 l! inst|second_adder|LPM_ADD_SUB_component|auto_generated|op_1~16_combout $end
$var wire 1 m! inst|second_adder|LPM_ADD_SUB_component|auto_generated|op_1~14_combout $end
$var wire 1 n! inst|second_adder|LPM_ADD_SUB_component|auto_generated|op_1~12_combout $end
$var wire 1 o! inst|second_adder|LPM_ADD_SUB_component|auto_generated|op_1~10_combout $end
$var wire 1 p! inst|second_adder|LPM_ADD_SUB_component|auto_generated|op_1~8_combout $end
$var wire 1 q! inst|second_adder|LPM_ADD_SUB_component|auto_generated|op_1~6_combout $end
$var wire 1 r! inst|second_adder|LPM_ADD_SUB_component|auto_generated|op_1~4_combout $end
$var wire 1 s! inst|second_adder|LPM_ADD_SUB_component|auto_generated|op_1~2_combout $end
$var wire 1 t! inst|second_adder|LPM_ADD_SUB_component|auto_generated|op_1~0_combout $end
$var wire 1 u! inst2|lookup_table|srom|rom_block|auto_generated|q_a [51] $end
$var wire 1 v! inst2|lookup_table|srom|rom_block|auto_generated|q_a [50] $end
$var wire 1 w! inst2|lookup_table|srom|rom_block|auto_generated|q_a [49] $end
$var wire 1 x! inst2|lookup_table|srom|rom_block|auto_generated|q_a [48] $end
$var wire 1 y! inst2|lookup_table|srom|rom_block|auto_generated|q_a [47] $end
$var wire 1 z! inst2|lookup_table|srom|rom_block|auto_generated|q_a [46] $end
$var wire 1 {! inst2|lookup_table|srom|rom_block|auto_generated|q_a [45] $end
$var wire 1 |! inst2|lookup_table|srom|rom_block|auto_generated|q_a [44] $end
$var wire 1 }! inst2|lookup_table|srom|rom_block|auto_generated|q_a [43] $end
$var wire 1 ~! inst2|lookup_table|srom|rom_block|auto_generated|q_a [42] $end
$var wire 1 !" inst2|lookup_table|srom|rom_block|auto_generated|q_a [41] $end
$var wire 1 "" inst2|lookup_table|srom|rom_block|auto_generated|q_a [40] $end
$var wire 1 #" inst2|lookup_table|srom|rom_block|auto_generated|q_a [39] $end
$var wire 1 $" inst2|lookup_table|srom|rom_block|auto_generated|q_a [38] $end
$var wire 1 %" inst2|lookup_table|srom|rom_block|auto_generated|q_a [37] $end
$var wire 1 &" inst2|lookup_table|srom|rom_block|auto_generated|q_a [36] $end
$var wire 1 '" inst2|lookup_table|srom|rom_block|auto_generated|q_a [35] $end
$var wire 1 (" inst2|lookup_table|srom|rom_block|auto_generated|q_a [34] $end
$var wire 1 )" inst2|lookup_table|srom|rom_block|auto_generated|q_a [33] $end
$var wire 1 *" inst2|lookup_table|srom|rom_block|auto_generated|q_a [32] $end
$var wire 1 +" inst2|lookup_table|srom|rom_block|auto_generated|q_a [31] $end
$var wire 1 ," inst2|lookup_table|srom|rom_block|auto_generated|q_a [30] $end
$var wire 1 -" inst2|lookup_table|srom|rom_block|auto_generated|q_a [29] $end
$var wire 1 ." inst2|lookup_table|srom|rom_block|auto_generated|q_a [28] $end
$var wire 1 /" inst2|lookup_table|srom|rom_block|auto_generated|q_a [27] $end
$var wire 1 0" inst2|lookup_table|srom|rom_block|auto_generated|q_a [26] $end
$var wire 1 1" inst2|lookup_table|srom|rom_block|auto_generated|q_a [25] $end
$var wire 1 2" inst2|lookup_table|srom|rom_block|auto_generated|q_a [24] $end
$var wire 1 3" inst2|lookup_table|srom|rom_block|auto_generated|q_a [23] $end
$var wire 1 4" inst2|lookup_table|srom|rom_block|auto_generated|q_a [22] $end
$var wire 1 5" inst2|lookup_table|srom|rom_block|auto_generated|q_a [21] $end
$var wire 1 6" inst2|lookup_table|srom|rom_block|auto_generated|q_a [20] $end
$var wire 1 7" inst2|lookup_table|srom|rom_block|auto_generated|q_a [19] $end
$var wire 1 8" inst2|lookup_table|srom|rom_block|auto_generated|q_a [18] $end
$var wire 1 9" inst2|lookup_table|srom|rom_block|auto_generated|q_a [17] $end
$var wire 1 :" inst2|lookup_table|srom|rom_block|auto_generated|q_a [16] $end
$var wire 1 ;" inst2|lookup_table|srom|rom_block|auto_generated|q_a [15] $end
$var wire 1 <" inst2|lookup_table|srom|rom_block|auto_generated|q_a [14] $end
$var wire 1 =" inst2|lookup_table|srom|rom_block|auto_generated|q_a [13] $end
$var wire 1 >" inst2|lookup_table|srom|rom_block|auto_generated|q_a [12] $end
$var wire 1 ?" inst2|lookup_table|srom|rom_block|auto_generated|q_a [11] $end
$var wire 1 @" inst2|lookup_table|srom|rom_block|auto_generated|q_a [10] $end
$var wire 1 A" inst2|lookup_table|srom|rom_block|auto_generated|q_a [9] $end
$var wire 1 B" inst2|lookup_table|srom|rom_block|auto_generated|q_a [8] $end
$var wire 1 C" inst2|lookup_table|srom|rom_block|auto_generated|q_a [7] $end
$var wire 1 D" inst2|lookup_table|srom|rom_block|auto_generated|q_a [6] $end
$var wire 1 E" inst2|lookup_table|srom|rom_block|auto_generated|q_a [5] $end
$var wire 1 F" inst2|lookup_table|srom|rom_block|auto_generated|q_a [4] $end
$var wire 1 G" inst2|lookup_table|srom|rom_block|auto_generated|q_a [3] $end
$var wire 1 H" inst2|lookup_table|srom|rom_block|auto_generated|q_a [2] $end
$var wire 1 I" inst2|lookup_table|srom|rom_block|auto_generated|q_a [1] $end
$var wire 1 J" inst2|lookup_table|srom|rom_block|auto_generated|q_a [0] $end
$var wire 1 K" seed~combout [15] $end
$var wire 1 L" seed~combout [14] $end
$var wire 1 M" seed~combout [13] $end
$var wire 1 N" seed~combout [12] $end
$var wire 1 O" seed~combout [11] $end
$var wire 1 P" seed~combout [10] $end
$var wire 1 Q" seed~combout [9] $end
$var wire 1 R" seed~combout [8] $end
$var wire 1 S" seed~combout [7] $end
$var wire 1 T" seed~combout [6] $end
$var wire 1 U" seed~combout [5] $end
$var wire 1 V" seed~combout [4] $end
$var wire 1 W" seed~combout [3] $end
$var wire 1 X" seed~combout [2] $end
$var wire 1 Y" seed~combout [1] $end
$var wire 1 Z" seed~combout [0] $end
$var wire 1 [" N~combout [5] $end
$var wire 1 \" N~combout [4] $end
$var wire 1 ]" N~combout [3] $end
$var wire 1 ^" N~combout [2] $end
$var wire 1 _" N~combout [1] $end
$var wire 1 `" N~combout [0] $end
$var wire 1 a" inst2|lookup_table|srom|rom_block|auto_generated|ram_block1a16_PORTADATAOUT_bus [35] $end
$var wire 1 b" inst2|lookup_table|srom|rom_block|auto_generated|ram_block1a16_PORTADATAOUT_bus [34] $end
$var wire 1 c" inst2|lookup_table|srom|rom_block|auto_generated|ram_block1a16_PORTADATAOUT_bus [33] $end
$var wire 1 d" inst2|lookup_table|srom|rom_block|auto_generated|ram_block1a16_PORTADATAOUT_bus [32] $end
$var wire 1 e" inst2|lookup_table|srom|rom_block|auto_generated|ram_block1a16_PORTADATAOUT_bus [31] $end
$var wire 1 f" inst2|lookup_table|srom|rom_block|auto_generated|ram_block1a16_PORTADATAOUT_bus [30] $end
$var wire 1 g" inst2|lookup_table|srom|rom_block|auto_generated|ram_block1a16_PORTADATAOUT_bus [29] $end
$var wire 1 h" inst2|lookup_table|srom|rom_block|auto_generated|ram_block1a16_PORTADATAOUT_bus [28] $end
$var wire 1 i" inst2|lookup_table|srom|rom_block|auto_generated|ram_block1a16_PORTADATAOUT_bus [27] $end
$var wire 1 j" inst2|lookup_table|srom|rom_block|auto_generated|ram_block1a16_PORTADATAOUT_bus [26] $end
$var wire 1 k" inst2|lookup_table|srom|rom_block|auto_generated|ram_block1a16_PORTADATAOUT_bus [25] $end
$var wire 1 l" inst2|lookup_table|srom|rom_block|auto_generated|ram_block1a16_PORTADATAOUT_bus [24] $end
$var wire 1 m" inst2|lookup_table|srom|rom_block|auto_generated|ram_block1a16_PORTADATAOUT_bus [23] $end
$var wire 1 n" inst2|lookup_table|srom|rom_block|auto_generated|ram_block1a16_PORTADATAOUT_bus [22] $end
$var wire 1 o" inst2|lookup_table|srom|rom_block|auto_generated|ram_block1a16_PORTADATAOUT_bus [21] $end
$var wire 1 p" inst2|lookup_table|srom|rom_block|auto_generated|ram_block1a16_PORTADATAOUT_bus [20] $end
$var wire 1 q" inst2|lookup_table|srom|rom_block|auto_generated|ram_block1a16_PORTADATAOUT_bus [19] $end
$var wire 1 r" inst2|lookup_table|srom|rom_block|auto_generated|ram_block1a16_PORTADATAOUT_bus [18] $end
$var wire 1 s" inst2|lookup_table|srom|rom_block|auto_generated|ram_block1a16_PORTADATAOUT_bus [17] $end
$var wire 1 t" inst2|lookup_table|srom|rom_block|auto_generated|ram_block1a16_PORTADATAOUT_bus [16] $end
$var wire 1 u" inst2|lookup_table|srom|rom_block|auto_generated|ram_block1a16_PORTADATAOUT_bus [15] $end
$var wire 1 v" inst2|lookup_table|srom|rom_block|auto_generated|ram_block1a16_PORTADATAOUT_bus [14] $end
$var wire 1 w" inst2|lookup_table|srom|rom_block|auto_generated|ram_block1a16_PORTADATAOUT_bus [13] $end
$var wire 1 x" inst2|lookup_table|srom|rom_block|auto_generated|ram_block1a16_PORTADATAOUT_bus [12] $end
$var wire 1 y" inst2|lookup_table|srom|rom_block|auto_generated|ram_block1a16_PORTADATAOUT_bus [11] $end
$var wire 1 z" inst2|lookup_table|srom|rom_block|auto_generated|ram_block1a16_PORTADATAOUT_bus [10] $end
$var wire 1 {" inst2|lookup_table|srom|rom_block|auto_generated|ram_block1a16_PORTADATAOUT_bus [9] $end
$var wire 1 |" inst2|lookup_table|srom|rom_block|auto_generated|ram_block1a16_PORTADATAOUT_bus [8] $end
$var wire 1 }" inst2|lookup_table|srom|rom_block|auto_generated|ram_block1a16_PORTADATAOUT_bus [7] $end
$var wire 1 ~" inst2|lookup_table|srom|rom_block|auto_generated|ram_block1a16_PORTADATAOUT_bus [6] $end
$var wire 1 !# inst2|lookup_table|srom|rom_block|auto_generated|ram_block1a16_PORTADATAOUT_bus [5] $end
$var wire 1 "# inst2|lookup_table|srom|rom_block|auto_generated|ram_block1a16_PORTADATAOUT_bus [4] $end
$var wire 1 ## inst2|lookup_table|srom|rom_block|auto_generated|ram_block1a16_PORTADATAOUT_bus [3] $end
$var wire 1 $# inst2|lookup_table|srom|rom_block|auto_generated|ram_block1a16_PORTADATAOUT_bus [2] $end
$var wire 1 %# inst2|lookup_table|srom|rom_block|auto_generated|ram_block1a16_PORTADATAOUT_bus [1] $end
$var wire 1 &# inst2|lookup_table|srom|rom_block|auto_generated|ram_block1a16_PORTADATAOUT_bus [0] $end
$var wire 1 '# inst2|lookup_table|srom|rom_block|auto_generated|ram_block1a0_PORTADATAOUT_bus [15] $end
$var wire 1 (# inst2|lookup_table|srom|rom_block|auto_generated|ram_block1a0_PORTADATAOUT_bus [14] $end
$var wire 1 )# inst2|lookup_table|srom|rom_block|auto_generated|ram_block1a0_PORTADATAOUT_bus [13] $end
$var wire 1 *# inst2|lookup_table|srom|rom_block|auto_generated|ram_block1a0_PORTADATAOUT_bus [12] $end
$var wire 1 +# inst2|lookup_table|srom|rom_block|auto_generated|ram_block1a0_PORTADATAOUT_bus [11] $end
$var wire 1 ,# inst2|lookup_table|srom|rom_block|auto_generated|ram_block1a0_PORTADATAOUT_bus [10] $end
$var wire 1 -# inst2|lookup_table|srom|rom_block|auto_generated|ram_block1a0_PORTADATAOUT_bus [9] $end
$var wire 1 .# inst2|lookup_table|srom|rom_block|auto_generated|ram_block1a0_PORTADATAOUT_bus [8] $end
$var wire 1 /# inst2|lookup_table|srom|rom_block|auto_generated|ram_block1a0_PORTADATAOUT_bus [7] $end
$var wire 1 0# inst2|lookup_table|srom|rom_block|auto_generated|ram_block1a0_PORTADATAOUT_bus [6] $end
$var wire 1 1# inst2|lookup_table|srom|rom_block|auto_generated|ram_block1a0_PORTADATAOUT_bus [5] $end
$var wire 1 2# inst2|lookup_table|srom|rom_block|auto_generated|ram_block1a0_PORTADATAOUT_bus [4] $end
$var wire 1 3# inst2|lookup_table|srom|rom_block|auto_generated|ram_block1a0_PORTADATAOUT_bus [3] $end
$var wire 1 4# inst2|lookup_table|srom|rom_block|auto_generated|ram_block1a0_PORTADATAOUT_bus [2] $end
$var wire 1 5# inst2|lookup_table|srom|rom_block|auto_generated|ram_block1a0_PORTADATAOUT_bus [1] $end
$var wire 1 6# inst2|lookup_table|srom|rom_block|auto_generated|ram_block1a0_PORTADATAOUT_bus [0] $end
$upscope $end
$upscope $end
$enddefinitions $end
#0
$dumpvars
0!
b0 "
bx #
0W
0V
0U
0T
0S
0R
0Q
0P
0O
0N
0M
0L
0K
0J
0I
0H
0G
0F
0E
0D
0C
0B
0A
0@
0?
0>
0=
0<
0;
0:
09
08
07
06
05
04
03
02
01
00
0/
0.
0-
0,
0+
0*
0)
0(
0'
0&
0%
0$
xu
xt
xs
xr
xq
xp
xo
xn
xm
xl
xk
xj
xi
xh
xg
xf
xe
xd
xc
xb
xa
x`
x_
x^
x]
x\
x[
xZ
xY
xX
xv
0w
1x
xy
1z
1{
1|
0}
0~
x!!
x"!
x#!
x$!
x%!
x&!
x'!
x(!
x)!
x*!
x+!
x,!
x-!
x.!
x/!
x0!
x1!
x2!
x3!
x4!
x5!
x6!
x7!
x8!
x9!
x:!
x;!
x<!
x=!
x>!
x?!
x@!
xA!
xB!
xC!
xD!
xE!
xF!
xG!
xH!
xI!
xJ!
xK!
xL!
xM!
xN!
xO!
xP!
xQ!
xR!
xS!
xT!
xU!
xV!
xW!
xX!
xY!
xZ!
x[!
x\!
x]!
x^!
x_!
x`!
xa!
xb!
xc!
xd!
xe!
xf!
xg!
xh!
xi!
xj!
xk!
xl!
xm!
xn!
xo!
xp!
xq!
xr!
xs!
xt!
0J"
0I"
0H"
0G"
0F"
0E"
0D"
0C"
0B"
0A"
0@"
0?"
0>"
0="
0<"
0;"
0:"
09"
08"
07"
06"
05"
04"
03"
02"
01"
00"
0/"
0."
0-"
0,"
0+"
0*"
0)"
0("
0'"
0&"
0%"
0$"
0#"
0""
0!"
0~!
0}!
0|!
0{!
0z!
0y!
0x!
0w!
0v!
0u!
xZ"
xY"
xX"
xW"
xV"
xU"
xT"
xS"
xR"
xQ"
xP"
xO"
xN"
xM"
xL"
xK"
0`"
0_"
0^"
0]"
0\"
0["
0&#
0%#
0$#
0##
0"#
0!#
0~"
0}"
0|"
0{"
0z"
0y"
0x"
0w"
0v"
0u"
0t"
0s"
0r"
0q"
0p"
0o"
0n"
0m"
0l"
0k"
0j"
0i"
0h"
0g"
0f"
0e"
0d"
0c"
0b"
0a"
06#
05#
04#
03#
02#
01#
00#
0/#
0.#
0-#
0,#
0+#
0*#
0)#
0(#
0'#
$end
#5000
1!
1}
1~
0v
#5001
16#
15#
14#
13#
12#
11#
10#
1/#
1.#
1-#
1,#
1+#
1*#
1)#
1(#
1'#
1&#
1%#
1$#
1##
1"#
1!#
1~"
1}"
1|"
1{"
1z"
1y"
1x"
1w"
1v"
1u"
1t"
1s"
1r"
1q"
1p"
1o"
1n"
1m"
1l"
1k"
1j"
1i"
1h"
1g"
1f"
1e"
1d"
1c"
1b"
1a"
1J"
1I"
1H"
1G"
1F"
1E"
1D"
1C"
1B"
1A"
1@"
1?"
1>"
1="
1<"
1;"
1:"
19"
18"
17"
16"
15"
14"
13"
12"
11"
10"
1/"
1."
1-"
1,"
1+"
1*"
1)"
1("
1'"
1&"
1%"
1$"
1#"
1""
1!"
1~!
1}!
1|!
1{!
1z!
1y!
1x!
1w!
1v!
1u!
1W
1V
1U
1T
1S
1R
1Q
1P
1O
1N
1M
1L
1K
1J
1I
1H
1G
1F
1E
1D
1C
1B
1A
1@
1?
1>
1=
1<
1;
1:
19
18
17
16
15
14
13
12
11
10
1/
1.
1-
1,
1+
1*
1)
1(
1'
1&
1%
1$
#10000
b1 "
0!
1`"
0}
0~
1v
#15000
1!
1}
1~
0v
#15001
06#
0J"
0W
#20000
b11 "
b10 "
0!
0`"
1_"
0}
0~
1v
#25000
1!
1}
1~
0v
#25001
05#
0I"
0V
#30000
b11 "
0!
1`"
0}
0~
1v
#35000
1!
1}
1~
0v
#35001
04#
0H"
0U
#40000
b111 "
b101 "
b100 "
0!
0`"
0_"
1^"
0}
0~
1v
#45000
1!
1}
1~
0v
#45001
03#
0G"
0T
#50000
b101 "
0!
1`"
0}
0~
1v
#55000
1!
1}
1~
0v
#55001
02#
0F"
0S
#60000
b111 "
b110 "
0!
0`"
1_"
0}
0~
1v
#65000
1!
1}
1~
0v
#65001
01#
0E"
0R
#70000
b111 "
0!
1`"
0}
0~
1v
#75000
1!
1}
1~
0v
#75001
00#
0D"
0Q
#80000
b1111 "
b1011 "
b1001 "
b1000 "
0!
0`"
0_"
0^"
1]"
0}
0~
1v
#85000
1!
1}
1~
0v
#85001
0/#
0C"
0P
#90000
b1001 "
0!
1`"
0}
0~
1v
#95000
1!
1}
1~
0v
#95001
0.#
0B"
0O
#100000
b1011 "
b1010 "
0!
0`"
1_"
0}
0~
1v
#105000
1!
1}
1~
0v
#105001
0-#
0A"
0N
#110000
b1011 "
0!
1`"
0}
0~
1v
#115000
1!
1}
1~
0v
#115001
0,#
0@"
0M
#120000
b1111 "
b1101 "
b1100 "
0!
0`"
0_"
1^"
0}
0~
1v
#125000
1!
1}
1~
0v
#125001
0+#
0?"
0L
#130000
b1101 "
0!
1`"
0}
0~
1v
#135000
1!
1}
1~
0v
#135001
0*#
0>"
0K
#140000
b1111 "
b1110 "
0!
0`"
1_"
0}
0~
1v
#145000
1!
1}
1~
0v
#145001
0)#
0="
0J
#150000
b1111 "
0!
1`"
0}
0~
1v
#155000
1!
1}
1~
0v
#155001
0(#
0<"
0I
#160000
b11111 "
b10111 "
b10011 "
b10001 "
b10000 "
0!
0`"
0_"
0^"
0]"
1\"
0}
0~
1v
#165000
1!
1}
1~
0v
#165001
0'#
0;"
0H
#170000
b10001 "
0!
1`"
0}
0~
1v
#175000
1!
1}
1~
0v
#175001
0&#
0:"
0G
#180000
b10011 "
b10010 "
0!
0`"
1_"
0}
0~
1v
#185000
1!
1}
1~
0v
#185001
0%#
09"
0F
#190000
b10011 "
0!
1`"
0}
0~
1v
#195000
1!
1}
1~
0v
#195001
0$#
08"
0E
#200000
b10111 "
b10101 "
b10100 "
0!
0`"
0_"
1^"
0}
0~
1v
#205000
1!
1}
1~
0v
#205001
0##
07"
0D
#210000
b10101 "
0!
1`"
0}
0~
1v
#215000
1!
1}
1~
0v
#215001
0"#
06"
0C
#220000
b10111 "
b10110 "
0!
0`"
1_"
0}
0~
1v
#225000
1!
1}
1~
0v
#225001
0!#
05"
0B
#230000
b10111 "
0!
1`"
0}
0~
1v
#235000
1!
1}
1~
0v
#235001
0~"
04"
0A
#240000
b11111 "
b11011 "
b11001 "
b11000 "
0!
0`"
0_"
0^"
1]"
0}
0~
1v
#245000
1!
1}
1~
0v
#245001
0}"
03"
0@
#250000
b11001 "
0!
1`"
0}
0~
1v
#255000
1!
1}
1~
0v
#255001
0|"
02"
0?
#260000
b11011 "
b11010 "
0!
0`"
1_"
0}
0~
1v
#265000
1!
1}
1~
0v
#265001
0{"
01"
0>
#270000
b11011 "
0!
1`"
0}
0~
1v
#275000
1!
1}
1~
0v
#275001
0z"
00"
0=
#280000
b11111 "
b11101 "
b11100 "
0!
0`"
0_"
1^"
0}
0~
1v
#285000
1!
1}
1~
0v
#285001
0y"
0/"
0<
#290000
b11101 "
0!
1`"
0}
0~
1v
#295000
1!
1}
1~
0v
