lab1/simulation/qsim/gA6_lab1.msim.vcd
$comment
	File created using the following command:
		vcd file gA6_lab1.msim.vcd -direction
$end
$date
	Mon Oct 02 15:55:21 2017
$end
$version
	ModelSim Version 10.1d
$end
$timescale
	1ps
$end
$scope module gA6_lab1_vlg_vec_tst $end
$var reg 6 ! A [5:0] $end
$var wire 1 " Amod13 [3] $end
$var wire 1 # Amod13 [2] $end
$var wire 1 $ Amod13 [1] $end
$var wire 1 % Amod13 [0] $end
$var wire 1 & sampler $end
$scope module i1 $end
$var wire 1 ' gnd $end
$var wire 1 ( vcc $end
$var wire 1 ) unknown $end
$var tri1 1 * devclrn $end
$var tri1 1 + devpor $end
$var tri1 1 , devoe $end
$var wire 1 - inst|inst|inst6|inst3~0_combout $end
$var wire 1 . inst|inst|inst6|inst3~1_combout $end
$var wire 1 / inst|inst|inst6|inst3~2_combout $end
$var wire 1 0 inst|inst|inst6|inst1~0_combout $end
$var wire 1 1 inst|inst|inst6|inst1~combout $end
$var wire 1 2 inst|inst|inst7|inst3~combout $end
$var wire 1 3 inst|inst5|inst1|inst2~0_combout $end
$var wire 1 4 inst|inst5|inst2|inst~combout $end
$var wire 1 5 inst|inst5|inst3|inst3~0_combout $end
$var wire 1 6 inst|inst5|inst3|inst3~combout $end
$var wire 1 7 inst|inst5|inst2|inst3~combout $end
$var wire 1 8 inst|inst5|inst1|inst3~combout $end
$var wire 1 9 inst|inst5|inst|inst~combout $end
$var wire 1 : A~combout [5] $end
$var wire 1 ; A~combout [4] $end
$var wire 1 < A~combout [3] $end
$var wire 1 = A~combout [2] $end
$var wire 1 > A~combout [1] $end
$var wire 1 ? A~combout [0] $end
$upscope $end
$upscope $end
$enddefinitions $end
#0
$dumpvars
b0 !
0%
0$
0#
0"
x&
0'
1(
x)
1*
1+
1,
0-
0.
0/
00
01
02
03
04
05
06
07
08
09
0?
0>
0=
0<
0;
0:
$end
#10000
b1 !
1?
0&
19
1%
#20000
b11 !
b10 !
0?
1>
1&
09
18
0%
1$
#30000
b11 !
1?
0&
19
1%
#40000
b111 !
b101 !
b100 !
0?
0>
1=
1&
09
08
15
14
17
0%
0$
1#
#50000
b101 !
1?
0&
19
1%
#60000
b111 !
b110 !
0?
1>
1&
09
18
0%
1$
#70000
b111 !
1?
0&
19
1%
#80000
b1111 !
b1011 !
b1001 !
b1000 !
0?
0>
0=
1<
1&
09
08
05
04
16
07
0%
0$
1"
0#
#90000
b1001 !
1?
0&
19
1%
#100000
b1011 !
b1010 !
0?
1>
1&
09
18
1-
0%
1$
#110000
b1011 !
1?
0&
19
1%
#120000
b1111 !
b1101 !
b1100 !
0?
0>
1=
1&
09
08
1.
0-
15
14
10
17
0%
0$
1#
#130000
b1101 !
1?
0&
1/
04
07
06
0#
0"
#140000
b1111 !
b1110 !
0?
1>
1&
0/
1-
18
14
19
1/
17
16
08
04
1$
1%
07
06
1#
1"
0$
0#
0"
#150000
b1111 !
1?
0&
09
18
0%
1$
#160000
b11111 !
b10111 !
b10011 !
b10001 !
b10000 !
0?
0>
0=
0<
1;
1&
13
0/
11
0.
0-
14
00
16
06
08
04
03
12
19
1/
01
1"
16
13
14
02
0"
0$
1%
06
18
1"
0"
1$
#170000
b10001 !
1?
0&
09
08
03
17
0%
0$
1#
#180000
b10011 !
b10010 !
0?
1>
1&
19
1%
#190000
b10011 !
1?
0&
09
18
0%
1$
#200000
b10111 !
b10101 !
b10100 !
0?
0>
1=
1&
19
13
04
1%
#210000
b10101 !
1?
0&
09
08
03
07
16
0%
0$
0#
1"
#220000
b10111 !
b10110 !
0?
1>
1&
19
1%
#230000
b10111 !
1?
0&
09
18
0%
1$
#240000
b11111 !
b11011 !
b11001 !
b11000 !
0?
0>
0=
1<
1&
19
13
14
06
16
1%
0"
1"
#250000
b11001 !
1?
0&
09
08
03
17
0%
0$
1#
#260000
b11011 !
b11010 !
0?
1>
1&
19
11
1-
05
12
09
0/
1%
06
15
04
0%
07
0"
0#
#270000
b11011 !
1?
0&
19
1%
#280000
b11111 !
b11101 !
b11100 !
0?
0>
1=
1&
09
18
13
01
1.
0-
05
14
10
15
02
11
0%
1$
16
08
03
05
12
17
06
18
13
1"
0$
07
1#
0"
1$
0#
#290000
b11101 !
1?
0&
19
1%
#300000
b11111 !
b11110 !
0?
1>
1&
09
08
03
1-
17
0%
0$
1#
#310000
b11111 !
1?
0&
19
1%
#320000
b111111 !
b101111 !
b100111 !
b100011 !
b100001 !
b100000 !
0?
0>
0=
0<
0;
1:
1&
18
13
1/
01
0.
0-
00
16
02
07
12
09
0/
1$
1"
15
04
0#
0%
06
17
0"
1#
#330000
b100001 !
1?
0&
19
1%
#340000
b100011 !
b100010 !
0?
1>
1&
09
08
03
07
16
0%
0$
0#
1"
#350000
b100011 !
1?
0&
19
1%
#360000
b100111 !
b100101 !
b100100 !
0?
0>
1=
1&
09
18
13
1-
05
14
10
0%
1$
#370000
b100101 !
1?
0&
19
1%
#380000
b100111 !
b100110 !
0?
1>
1&
09
08
03
1.
0-
17
0%
0$
1#
#390000
b100111 !
1?
0&
1/
04
07
06
0#
0"
#400000
b101111 !
b101011 !
b101001 !
b101000 !
0?
0>
0=
1<
1&
13
0/
1-
14
16
06
18
15
04
19
1/
1"
16
17
08
05
14
0"
1$
1%
06
07
1"
1#
0$
0"
0#
#410000
b101001 !
1?
0&
09
18
0%
1$
#420000
b101011 !
b101010 !
0?
1>
1&
19
1%
#430000
b101011 !
1?
0&
09
08
03
17
0%
0$
1#
#440000
b101111 !
b101101 !
b101100 !
0?
0>
1=
1&
19
13
04
1%
#450000
b101101 !
1?
0&
09
18
0%
1$
#460000
b101111 !
b101110 !
0?
1>
1&
19
1%
#470000
b101111 !
1?
0&
09
08
03
07
16
0%
0$
0#
1"
#480000
b111111 !
b110111 !
b110011 !
b110001 !
b110000 !
0?
0>
0=
0<
1;
1&
13
0/
11
0.
0-
14
00
06
16
18
02
19
1/
01
0"
12
1"
1$
1%
08
0$
#490000
b110001 !
1?
0&
09
18
0%
1$
#500000
b110011 !
b110010 !
0?
1>
1&
19
1%
#510000
b110011 !
1?
0&
09
08
03
17
0%
0$
1#
#520000
b110111 !
b110101 !
b110100 !
0?
0>
1=
1&
19
13
1-
04
10
09
0/
11
1%
18
02
0%
08
03
1$
07
06
0$
0#
0"
#530000
b110101 !
1?
0&
19
1%
#540000
b110111 !
b110110 !
0?
1>
1&
09
18
1.
0-
0%
1$
#550000
b110111 !
1?
0&
19
1%
#560000
b111111 !
b111011 !
b111001 !
b111000 !
0?
0>
0=
1<
1&
09
08
1-
14
16
17
06
0%
0$
1"
1#
0"
#570000
b111001 !
1?
0&
19
1%
#580000
b111011 !
b111010 !
0?
1>
1&
09
18
0%
1$
#590000
b111011 !
1?
0&
19
1%
#600000
b111111 !
b111101 !
b111100 !
0?
0>
1=
1&
09
08
04
07
16
0%
0$
0#
1"
#610000
b111101 !
1?
0&
19
1%
#620000
b111111 !
b111110 !
0?
1>
1&
09
18
0%
1$
#630000
b111111 !
1?
0&
19
1%
