lab1/simulation/qsim/gA6_lab1.msim.vcd
$comment
	File created using the following command:
		vcd file gA6_lab1.msim.vcd -direction
$end
$date
	Mon Oct 02 16:25:54 2017
$end
$version
	ModelSim Version 10.1d
$end
$timescale
	1ps
$end
$scope module gA6_lab1_vlg_vec_tst $end
$var reg 6 ! A [5:0] $end
$var reg 7 " B [6:0] $end
$var reg 7 # C [6:0] $end
$var wire 1 $ AeqB $end
$var wire 1 % Amod13 [3] $end
$var wire 1 & Amod13 [2] $end
$var wire 1 ' Amod13 [1] $end
$var wire 1 ( Amod13 [0] $end
$var wire 1 ) sampler $end
$scope module i1 $end
$var wire 1 * gnd $end
$var wire 1 + vcc $end
$var wire 1 , unknown $end
$var tri1 1 - devclrn $end
$var tri1 1 . devpor $end
$var tri1 1 / devoe $end
$var wire 1 0 inst1|inst6~combout $end
$var wire 1 1 inst1|inst11~2_combout $end
$var wire 1 2 inst1|inst11~0_combout $end
$var wire 1 3 inst1|inst11~1_combout $end
$var wire 1 4 inst1|inst11~3_combout $end
$var wire 1 5 inst|inst|inst6|inst3~0_combout $end
$var wire 1 6 inst|inst|inst6|inst3~1_combout $end
$var wire 1 7 inst|inst|inst6|inst3~2_combout $end
$var wire 1 8 inst|inst|inst6|inst1~0_combout $end
$var wire 1 9 inst|inst|inst6|inst1~combout $end
$var wire 1 : inst|inst5|inst2|inst~combout $end
$var wire 1 ; inst|inst5|inst3|inst3~0_combout $end
$var wire 1 < inst|inst5|inst1|inst2~0_combout $end
$var wire 1 = inst|inst5|inst3|inst3~combout $end
$var wire 1 > inst|inst5|inst2|inst3~combout $end
$var wire 1 ? inst|inst|inst7|inst3~combout $end
$var wire 1 @ inst|inst5|inst1|inst3~combout $end
$var wire 1 A inst|inst5|inst|inst~combout $end
$var wire 1 B B~combout [6] $end
$var wire 1 C B~combout [5] $end
$var wire 1 D B~combout [4] $end
$var wire 1 E B~combout [3] $end
$var wire 1 F B~combout [2] $end
$var wire 1 G B~combout [1] $end
$var wire 1 H B~combout [0] $end
$var wire 1 I A~combout [5] $end
$var wire 1 J A~combout [4] $end
$var wire 1 K A~combout [3] $end
$var wire 1 L A~combout [2] $end
$var wire 1 M A~combout [1] $end
$var wire 1 N A~combout [0] $end
$var wire 1 O C~combout [6] $end
$var wire 1 P C~combout [5] $end
$var wire 1 Q C~combout [4] $end
$var wire 1 R C~combout [3] $end
$var wire 1 S C~combout [2] $end
$var wire 1 T C~combout [1] $end
$var wire 1 U C~combout [0] $end
$upscope $end
$upscope $end
$enddefinitions $end
#0
$dumpvars
b0 !
b0 "
b0 #
1$
0(
0'
0&
0%
x)
0*
1+
x,
1-
1.
1/
00
11
12
13
14
05
06
07
08
09
0:
0;
0<
0=
0>
0?
0@
0A
0H
0G
0F
0E
0D
0C
0B
0N
0M
0L
0K
0J
0I
0U
0T
0S
0R
0Q
0P
0O
$end
#4000
b1 #
1U
0)
10
04
0$
#8000
b11 #
b10 #
0U
1T
1)
00
01
#10000
b1 !
1N
0)
1A
1(
#12000
b11 #
1U
1)
10
#16000
b111 #
b101 #
b100 #
0U
0T
1S
0)
00
#20000
b11 !
b10 !
b101 #
1U
0N
1M
1)
10
0A
1@
0(
1'
#24000
b111 #
b110 #
0U
1T
0)
00
#28000
b111 #
1U
1)
10
#30000
b11 !
1N
0)
1A
1(
#32000
b1111 #
b1011 #
b1001 #
b1000 #
0U
0T
0S
1R
1)
00
11
03
#36000
b1001 #
1U
0)
10
#40000
b111 !
b101 !
b100 !
b1011 #
b1010 #
0U
1T
0N
0M
1L
1)
00
01
0A
0@
1;
1:
1>
0(
0'
1&
#44000
b1011 #
1U
0)
10
#48000
b1111 #
b1101 #
b1100 #
0U
0T
1S
1)
00
#50000
b101 !
1N
0)
1A
1(
#52000
b1101 #
1U
1)
10
#56000
b1111 #
b1110 #
0U
1T
0)
00
#60000
b111 !
b110 !
b1111 #
1U
0N
1M
1)
10
0A
1@
0(
1'
#64000
b11111 #
b10111 #
b10011 #
b10001 #
b10000 #
0U
0T
0S
0R
1Q
0)
00
11
#68000
b10001 #
1U
1)
10
#70000
b111 !
1N
0)
1A
1(
#72000
b10011 #
b10010 #
0U
1T
1)
00
01
#76000
b10011 #
1U
0)
10
#80000
b1111 !
b1011 !
b1001 !
b10111 #
b1000 !
b10101 #
b10100 #
0U
0T
1S
0N
0M
0L
1K
1)
00
0A
0@
0;
0:
1=
0>
0(
0'
1%
0&
#84000
b10101 #
1U
0)
10
#88000
b10111 #
b10110 #
0U
1T
1)
00
#90000
b1001 !
1N
0)
1A
1(
#92000
b10111 #
1U
1)
10
#96000
b11111 #
b11011 #
b11001 #
b11000 #
0U
0T
0S
1R
0)
00
11
#100000
b1011 !
b1010 !
b11001 #
1U
0N
1M
1)
10
0A
1@
15
0(
1'
#104000
b11011 #
b11010 #
0U
1T
0)
00
01
#108000
b11011 #
1U
1)
10
#110000
b1011 !
1N
0)
1A
1(
#112000
b11111 #
b11101 #
b11100 #
0U
0T
1S
1)
00
#116000
b11101 #
1U
0)
10
#120000
b1111 !
b1101 !
b1100 !
b11111 #
b11110 #
0U
1T
0N
0M
1L
1)
00
0A
0@
16
05
1;
1:
18
1>
0(
0'
1&
#124000
b11111 #
1U
0)
10
#128000
b111111 #
b101111 #
b100111 #
b100011 #
b100001 #
b100000 #
0U
0T
0S
0R
0Q
1P
1)
00
11
13
02
#130000
b1101 !
1N
0)
17
0:
0>
0=
0&
0%
#132000
b100001 #
1U
1)
10
#136000
b100011 #
b100010 #
0U
1T
0)
00
01
#140000
b1111 !
b1110 !
b100011 #
1U
0N
1M
1)
10
07
15
1@
1:
1A
17
1>
1=
0@
0:
1'
1(
0>
0=
1&
1%
0'
0&
0%
#144000
b100111 #
b100101 #
b100100 #
0U
0T
1S
0)
00
#148000
b100101 #
1U
1)
10
#150000
b1111 !
1N
0)
0A
1@
0(
1'
#152000
b100111 #
b100110 #
0U
1T
1)
00
#156000
b100111 #
1U
0)
10
#160000
b11111 !
b10111 !
b10011 !
b101111 #
b10001 !
b101011 #
b10000 !
b101001 #
b101000 #
0U
0T
0S
1R
0N
0M
0L
0K
1J
1)
00
11
03
1<
07
19
06
05
1:
08
1=
0=
0@
0<
0:
1?
1A
17
09
1%
1=
1<
1:
0?
0%
0'
1(
0=
1@
1%
0%
1'
#164000
b101001 #
1U
0)
10
#168000
b101011 #
b101010 #
0U
1T
1)
00
01
#170000
b10001 !
1N
0)
0A
0@
0<
1>
0(
0'
1&
#172000
b101011 #
1U
1)
10
#176000
b101111 #
b101101 #
b101100 #
0U
0T
1S
0)
00
#180000
b10011 !
b10010 !
b101101 #
1U
0N
1M
1)
10
1A
1(
#184000
b101111 #
b101110 #
0U
1T
0)
00
#188000
b101111 #
1U
1)
10
#190000
b10011 !
1N
0)
0A
1@
0(
1'
#192000
b111111 #
b110111 #
b110011 #
b110001 #
b110000 #
0U
0T
0S
0R
1Q
1)
00
11
#196000
b110001 #
1U
0)
10
#200000
b10111 !
b10101 !
b10100 !
b110011 #
b110010 #
0U
1T
0N
0M
1L
1)
00
01
1A
1<
0:
1(
#204000
b110011 #
1U
0)
10
#208000
b110111 #
b110101 #
b110100 #
0U
0T
1S
1)
00
#210000
b10101 !
1N
0)
0A
0@
0<
0>
1=
0(
0'
0&
1%
#212000
b110101 #
1U
1)
10
#216000
b110111 #
b110110 #
0U
1T
0)
00
#220000
b10111 !
b10110 !
b110111 #
1U
0N
1M
1)
10
1A
1(
#224000
b111111 #
b111011 #
b111001 #
b111000 #
0U
0T
0S
1R
0)
00
11
#228000
b111001 #
1U
1)
10
#230000
b10111 !
1N
0)
0A
1@
0(
1'
#232000
b111011 #
b111010 #
0U
1T
1)
00
01
#236000
b111011 #
1U
0)
10
#240000
b11111 !
b11011 !
b11001 !
b111111 #
b11000 !
b111101 #
b111100 #
0U
0T
1S
0N
0M
0L
1K
1)
00
1A
1<
1:
0=
1=
1(
0%
1%
#244000
b111101 #
1U
0)
10
#248000
b111111 #
b111110 #
0U
1T
1)
00
#250000
b11001 !
1N
0)
0A
0@
0<
1>
0(
0'
1&
#252000
b111111 #
1U
1)
10
#256000
b1111111 #
b1011111 #
b1001111 #
b1000111 #
b1000011 #
b1000001 #
b1000000 #
0U
0T
0S
0R
0Q
0P
1O
0)
00
11
13
#260000
b11011 !
b11010 !
b1000001 #
1U
0N
1M
1)
10
1A
19
15
1?
0;
0A
07
1(
0=
1;
0:
0(
0>
0%
0&
#264000
b1000011 #
b1000010 #
0U
1T
0)
00
01
#268000
b1000011 #
1U
1)
10
#270000
b11011 !
1N
0)
1A
1(
#272000
b1000111 #
b1000101 #
b1000100 #
0U
0T
1S
1)
00
#276000
b1000101 #
1U
0)
10
#280000
b11111 !
b11101 !
b11100 !
b1000111 #
b1000110 #
0U
1T
0N
0M
1L
1)
00
0A
1@
1<
09
16
05
0;
1:
18
0?
1;
19
0(
1'
0@
0<
1=
1?
0;
1>
0=
1@
1<
0'
1%
0>
1&
0%
1'
0&
#284000
b1000111 #
1U
0)
10
#288000
b1001111 #
b1001011 #
b1001001 #
b1001000 #
0U
0T
0S
1R
1)
00
11
03
#290000
b11101 !
1N
0)
1A
1(
#292000
b1001001 #
1U
1)
10
#296000
b1001011 #
b1001010 #
0U
1T
0)
00
01
#300000
b11111 !
b11110 !
b1001011 #
1U
0N
1M
1)
10
0A
0@
0<
15
1>
0(
0'
1&
#304000
b1001111 #
b1001101 #
b1001100 #
0U
0T
1S
0)
00
#308000
b1001101 #
1U
1)
10
#310000
b11111 !
1N
0)
1A
1(
#312000
b1001111 #
b1001110 #
0U
1T
1)
00
#316000
b1001111 #
1U
0)
10
#320000
b111111 !
b101111 !
b100111 !
b1011111 #
b100011 !
b1010111 #
b100001 !
b1010011 #
b100000 !
b1010001 #
b1010000 #
0U
0T
0S
0R
1Q
0N
0M
0L
0K
0J
1I
1)
00
11
1@
1<
17
09
06
05
08
1=
0?
0>
1?
0A
07
1'
1%
1;
0:
0&
0(
0=
1>
0%
1&
#324000
b1010001 #
1U
0)
10
#328000
b1010011 #
b1010010 #
0U
1T
1)
00
01
#330000
b100001 !
1N
0)
1A
1(
#332000
b1010011 #
1U
1)
10
#336000
b1010111 #
b1010101 #
b1010100 #
0U
0T
1S
0)
00
#340000
b100011 !
b100010 !
b1010101 #
1U
0N
1M
1)
10
0A
0@
0<
0>
1=
0(
0'
0&
1%
#344000
b1010111 #
b1010110 #
0U
1T
0)
00
#348000
b1010111 #
1U
1)
10
#350000
b100011 !
1N
0)
1A
1(
#352000
b1011111 #
b1011011 #
b1011001 #
b1011000 #
0U
0T
0S
1R
1)
00
11
#356000
b1011001 #
1U
0)
10
#360000
b100111 !
b100101 !
b100100 !
b1011011 #
b1011010 #
0U
1T
0N
0M
1L
1)
00
01
0A
1@
1<
15
0;
1:
18
0(
1'
#364000
b1011011 #
1U
0)
10
#368000
b1011111 #
b1011101 #
b1011100 #
0U
0T
1S
1)
00
#370000
b100101 !
1N
0)
1A
1(
#372000
b1011101 #
1U
1)
10
#376000
b1011111 #
b1011110 #
0U
1T
0)
00
#380000
b100111 !
b100110 !
b1011111 #
1U
0N
1M
1)
10
0A
0@
0<
16
05
1>
0(
0'
1&
#384000
b1111111 #
b1101111 #
b1100111 #
b1100011 #
b1100001 #
b1100000 #
0U
0T
0S
0R
0Q
1P
0)
00
11
13
#388000
b1100001 #
1U
1)
10
#390000
b100111 !
1N
0)
17
0:
0>
0=
0&
0%
#392000
b1100011 #
b1100010 #
0U
1T
1)
00
01
#396000
b1100011 #
1U
0)
10
#400000
b101111 !
b101011 !
b101001 !
b1100111 #
b101000 !
b1100101 #
b1100100 #
0U
0T
1S
0N
0M
0L
1K
1)
00
1<
07
15
1:
1=
0=
1@
1;
0:
1A
17
1%
1=
1>
0@
0;
1:
0%
1'
1(
0=
0>
1%
1&
0'
0%
0&
#404000
b1100101 #
1U
0)
10
#408000
b1100111 #
b1100110 #
0U
1T
1)
00
#410000
b101001 !
1N
0)
0A
1@
0(
1'
#412000
b1100111 #
1U
1)
10
#416000
b1101111 #
b1101011 #
b1101001 #
b1101000 #
0U
0T
0S
1R
0)
00
11
03
#420000
b101011 !
b101010 !
b1101001 #
1U
0N
1M
1)
10
1A
1(
#424000
b1101011 #
b1101010 #
0U
1T
0)
00
01
#428000
b1101011 #
1U
1)
10
#430000
b101011 !
1N
0)
0A
0@
0<
1>
0(
0'
1&
#432000
b1101111 #
b1101101 #
b1101100 #
0U
0T
1S
1)
00
#436000
b1101101 #
1U
0)
10
#440000
b101111 !
b101101 !
b101100 !
b1101111 #
b1101110 #
0U
1T
0N
0M
1L
1)
00
1A
1<
0:
1(
#444000
b1101111 #
1U
0)
10
#448000
b1111111 #
b1110111 #
b1110011 #
b1110001 #
b1110000 #
0U
0T
0S
0R
1Q
1)
00
11
#450000
b101101 !
1N
0)
0A
1@
0(
1'
#452000
b1110001 #
1U
1)
10
#456000
b1110011 #
b1110010 #
0U
1T
0)
00
01
#460000
b101111 !
b101110 !
b1110011 #
1U
0N
1M
1)
10
1A
1(
#464000
b1110111 #
b1110101 #
b1110100 #
0U
0T
1S
0)
00
#468000
b1110101 #
1U
1)
10
#470000
b101111 !
1N
0)
0A
0@
0<
0>
1=
0(
0'
0&
1%
#472000
b1110111 #
b1110110 #
0U
1T
1)
00
#476000
b1110111 #
1U
0)
10
#480000
b111111 !
b110111 !
b110011 !
b1111111 #
b110001 !
b1111011 #
b110000 !
b1111001 #
b1111000 #
0U
0T
0S
1R
0N
0M
0L
0K
1J
1)
00
11
1<
07
19
06
05
1:
08
0=
1=
1@
0?
1A
17
09
0%
1?
1%
1'
1(
0@
0'
#484000
b1111001 #
1U
0)
10
#488000
b1111011 #
b1111010 #
0U
1T
1)
00
01
#490000
b110001 !
1N
0)
0A
1@
0(
1'
#492000
b1111011 #
1U
1)
10
#496000
b1111111 #
b1111101 #
b1111100 #
0U
0T
1S
0)
00
#500000
b110011 !
b110010 !
b1111101 #
1U
0N
1M
1)
10
1A
1(
#504000
b1111111 #
b1111110 #
0U
1T
0)
00
#508000
b1111111 #
1U
1)
10
#510000
b110011 !
1N
0)
0A
0@
0<
1>
0(
0'
1&
#512000
b1 "
b111111 #
b11111 #
b1111 #
b111 #
b11 #
b1 #
b0 #
0U
0T
0S
0R
0Q
0P
0O
1H
1)
11
13
12
#516000
b1 #
1U
0)
00
14
1$
#520000
b110111 !
b110101 !
b110100 !
b11 #
b10 #
0U
1T
0N
0M
1L
1)
10
01
1A
1<
15
0:
18
04
0A
07
19
1(
1@
0?
0$
0(
0@
0<
1'
0>
0=
0'
0&
0%
#524000
b11 #
1U
0)
00
#528000
b111 #
b101 #
b100 #
0U
0T
1S
1)
10
#530000
b110101 !
1N
0)
1A
1(
#532000
b101 #
1U
1)
00
#536000
b111 #
b110 #
0U
1T
0)
10
#540000
b110111 !
b110110 !
b111 #
1U
0N
1M
1)
00
0A
1@
16
05
0(
1'
#544000
b1111 #
b1011 #
b1001 #
b1000 #
0U
0T
0S
1R
0)
10
11
03
#548000
b1001 #
1U
1)
00
#550000
b110111 !
1N
0)
1A
1(
#552000
b1011 #
b1010 #
0U
1T
1)
10
01
#556000
b1011 #
1U
0)
00
#560000
b111111 !
b111011 !
b111001 !
b1111 #
b111000 !
b1101 #
b1100 #
0U
0T
1S
0N
0M
0L
1K
1)
10
0A
0@
15
1:
1=
1>
0=
0(
0'
1%
1&
0%
#564000
b1101 #
1U
0)
00
#568000
b1111 #
b1110 #
0U
1T
1)
10
#570000
b111001 !
1N
0)
1A
1(
#572000
b1111 #
1U
1)
00
#576000
b11111 #
b10111 #
b10011 #
b10001 #
b10000 #
0U
0T
0S
0R
1Q
0)
10
11
#580000
b111011 !
b111010 !
b10001 #
1U
0N
1M
1)
00
0A
1@
0(
1'
#584000
b10011 #
b10010 #
0U
1T
0)
10
01
#588000
b10011 #
1U
1)
00
#590000
b111011 !
1N
0)
1A
1(
#592000
b10111 #
b10101 #
b10100 #
0U
0T
1S
1)
10
#596000
b10101 #
1U
0)
00
#600000
b111111 !
b111101 !
b111100 !
b10111 #
b10110 #
0U
1T
0N
0M
1L
1)
10
0A
0@
0:
0>
1=
0(
0'
0&
1%
#604000
b10111 #
1U
0)
00
#608000
b11111 #
b11011 #
b11001 #
b11000 #
0U
0T
0S
1R
1)
10
11
#610000
b111101 !
1N
0)
1A
1(
#612000
b11001 #
1U
1)
00
#616000
b11011 #
b11010 #
0U
1T
0)
10
01
#620000
b111111 !
b111110 !
b11011 #
1U
0N
1M
1)
00
0A
1@
0(
1'
#624000
b11111 #
b11101 #
b11100 #
0U
0T
1S
0)
10
#628000
b11101 #
1U
1)
00
#630000
b111111 !
1N
0)
1A
1(
#632000
b11111 #
b11110 #
0U
1T
1)
10
#636000
b11111 #
1U
0)
00
#640000
b11111 !
b1111 !
b111111 #
b111 !
b101111 #
b11 !
b100111 #
b1 !
b100011 #
b0 !
b100001 #
b100000 #
0U
0T
0S
0R
0Q
1P
0N
0M
0L
0K
0J
0I
1)
10
11
13
02
0@
17
09
06
05
1;
08
0=
1?
1<
1:
0?
0A
07
1=
0'
0%
0=
0<
0;
0:
0(
1%
0%
#644000
b100001 #
1U
0)
00
#648000
b100011 #
b100010 #
0U
1T
1)
10
01
#650000
b1 !
1N
0)
1A
1(
#652000
b100011 #
1U
1)
00
#656000
b100111 #
b100101 #
b100100 #
0U
0T
1S
0)
10
#660000
b11 !
b10 !
b100101 #
1U
0N
1M
1)
00
0A
1@
0(
1'
#664000
b100111 #
b100110 #
0U
1T
0)
10
#668000
b100111 #
1U
1)
00
#670000
b11 !
1N
0)
1A
1(
#672000
b101111 #
b101011 #
b101001 #
b101000 #
0U
0T
0S
1R
1)
10
11
03
#676000
b101001 #
1U
0)
00
#680000
b111 !
b101 !
b100 !
b101011 #
b101010 #
0U
1T
0N
0M
1L
1)
10
01
0A
0@
1;
1:
1>
0(
0'
1&
#684000
b101011 #
1U
0)
00
#688000
b101111 #
b101101 #
b101100 #
0U
0T
1S
1)
10
#690000
b101 !
1N
0)
1A
1(
#692000
b101101 #
1U
1)
00
#696000
b101111 #
b101110 #
0U
1T
0)
10
#700000
b111 !
b110 !
b101111 #
1U
0N
1M
1)
00
0A
1@
0(
1'
#704000
b111111 #
b110111 #
b110011 #
b110001 #
b110000 #
0U
0T
0S
0R
1Q
0)
10
11
#708000
b110001 #
1U
1)
00
#710000
b111 !
1N
0)
1A
1(
#712000
b110011 #
b110010 #
0U
1T
1)
10
01
#716000
b110011 #
1U
0)
00
#720000
b1111 !
b1011 !
b1001 !
b110111 #
b1000 !
b110101 #
b110100 #
0U
0T
1S
0N
0M
0L
1K
1)
10
0A
0@
0;
0:
1=
0>
0(
0'
1%
0&
#724000
b110101 #
1U
0)
00
#728000
b110111 #
b110110 #
0U
1T
1)
10
#730000
b1001 !
1N
0)
1A
1(
#732000
b110111 #
1U
1)
00
#736000
b111111 #
b111011 #
b111001 #
b111000 #
0U
0T
0S
1R
0)
10
11
#740000
b1011 !
b1010 !
b111001 #
1U
0N
1M
1)
00
0A
1@
15
0(
1'
#744000
b111011 #
b111010 #
0U
1T
0)
10
01
#748000
b111011 #
1U
1)
00
#750000
b1011 !
1N
0)
1A
1(
#752000
b111111 #
b111101 #
b111100 #
0U
0T
1S
1)
10
#756000
b111101 #
1U
0)
00
#760000
b1111 !
b1101 !
b1100 !
b111111 #
b111110 #
0U
1T
0N
0M
1L
1)
10
0A
0@
16
05
1;
1:
18
1>
0(
0'
1&
#764000
b111111 #
1U
0)
00
#768000
b1111111 #
b1011111 #
b1001111 #
b1000111 #
b1000011 #
b1000001 #
b1000000 #
0U
0T
0S
0R
0Q
0P
1O
1)
10
11
13
#770000
b1101 !
1N
0)
17
0:
0>
0=
0&
0%
#772000
b1000001 #
1U
1)
00
#776000
b1000011 #
b1000010 #
0U
1T
0)
10
01
#780000
b1111 !
b1110 !
b1000011 #
1U
0N
1M
1)
00
07
15
1@
1:
1A
17
1>
1=
0@
0:
1'
1(
0>
0=
1&
1%
0'
0&
0%
#784000
b1000111 #
b1000101 #
b1000100 #
0U
0T
1S
0)
10
#788000
b1000101 #
1U
1)
00
#790000
b1111 !
1N
0)
0A
1@
0(
1'
#792000
b1000111 #
b1000110 #
0U
1T
1)
10
#796000
b1000111 #
1U
0)
00
#800000
b11111 !
b10111 !
b10011 !
b1001111 #
b10001 !
b1001011 #
b10000 !
b1001001 #
b1001000 #
0U
0T
0S
1R
0N
0M
0L
0K
1J
1)
10
11
03
1<
07
19
06
05
1:
08
1=
0=
0@
0<
0:
1?
1A
17
09
1%
1=
1<
1:
0?
0%
0'
1(
0=
1@
1%
0%
1'
#804000
b1001001 #
1U
0)
00
#808000
b1001011 #
b1001010 #
0U
1T
1)
10
01
#810000
b10001 !
1N
0)
0A
0@
0<
1>
0(
0'
1&
#812000
b1001011 #
1U
1)
00
#816000
b1001111 #
b1001101 #
b1001100 #
0U
0T
1S
0)
10
#820000
b10011 !
b10010 !
b1001101 #
1U
0N
1M
1)
00
1A
1(
#824000
b1001111 #
b1001110 #
0U
1T
0)
10
#828000
b1001111 #
1U
1)
00
#830000
b10011 !
1N
0)
0A
1@
0(
1'
#832000
b1011111 #
b1010111 #
b1010011 #
b1010001 #
b1010000 #
0U
0T
0S
0R
1Q
1)
10
11
#836000
b1010001 #
1U
0)
00
#840000
b10111 !
b10101 !
b10100 !
b1010011 #
b1010010 #
0U
1T
0N
0M
1L
1)
10
01
1A
1<
0:
1(
#844000
b1010011 #
1U
0)
00
#848000
b1010111 #
b1010101 #
b1010100 #
0U
0T
1S
1)
10
#850000
b10101 !
1N
0)
0A
0@
0<
0>
1=
0(
0'
0&
1%
#852000
b1010101 #
1U
1)
00
#856000
b1010111 #
b1010110 #
0U
1T
0)
10
#860000
b10111 !
b10110 !
b1010111 #
1U
0N
1M
1)
00
1A
1(
#864000
b1011111 #
b1011011 #
b1011001 #
b1011000 #
0U
0T
0S
1R
0)
10
11
#868000
b1011001 #
1U
1)
00
#870000
b10111 !
1N
0)
0A
1@
0(
1'
#872000
b1011011 #
b1011010 #
0U
1T
1)
10
01
#876000
b1011011 #
1U
0)
00
#880000
b11111 !
b11011 !
b11001 !
b1011111 #
b11000 !
b1011101 #
b1011100 #
0U
0T
1S
0N
0M
0L
1K
1)
10
1A
1<
1:
0=
1=
1(
0%
1%
#884000
b1011101 #
1U
0)
00
#888000
b1011111 #
b1011110 #
0U
1T
1)
10
#890000
b11001 !
1N
0)
0A
0@
0<
1>
0(
0'
1&
#892000
b1011111 #
1U
1)
00
#896000
b1111111 #
b1101111 #
b1100111 #
b1100011 #
b1100001 #
b1100000 #
0U
0T
0S
0R
0Q
1P
0)
10
11
13
#900000
b11011 !
b11010 !
b1100001 #
1U
0N
1M
1)
00
1A
19
15
1?
0;
0A
07
1(
0=
1;
0:
0(
0>
0%
0&
#904000
b1100011 #
b1100010 #
0U
1T
0)
10
01
#908000
b1100011 #
1U
1)
00
#910000
b11011 !
1N
0)
1A
1(
#912000
b1100111 #
b1100101 #
b1100100 #
0U
0T
1S
1)
10
#916000
b1100101 #
1U
0)
00
#920000
b11111 !
b11101 !
b11100 !
b1100111 #
b1100110 #
0U
1T
0N
0M
1L
1)
10
0A
1@
1<
09
16
05
0;
1:
18
0?
1;
19
0(
1'
0@
0<
1=
1?
0;
1>
0=
1@
1<
0'
1%
0>
1&
0%
1'
0&
#924000
b1100111 #
1U
0)
00
#928000
b1101111 #
b1101011 #
b1101001 #
b1101000 #
0U
0T
0S
1R
1)
10
11
03
#930000
b11101 !
1N
0)
1A
1(
#932000
b1101001 #
1U
1)
00
#936000
b1101011 #
b1101010 #
0U
1T
0)
10
01
#940000
b11111 !
b11110 !
b1101011 #
1U
0N
1M
1)
00
0A
0@
0<
15
1>
0(
0'
1&
#944000
b1101111 #
b1101101 #
b1101100 #
0U
0T
1S
0)
10
#948000
b1101101 #
1U
1)
00
#950000
b11111 !
1N
0)
1A
1(
#952000
b1101111 #
b1101110 #
0U
1T
1)
10
#956000
b1101111 #
1U
0)
00
#960000
b111111 !
b101111 !
b100111 !
b1111111 #
b100011 !
b1110111 #
b100001 !
b1110011 #
b100000 !
b1110001 #
b1110000 #
0U
0T
0S
0R
1Q
0N
0M
0L
0K
0J
1I
1)
10
11
1@
1<
17
09
06
05
08
1=
0?
0>
1?
0A
07
1'
1%
1;
0:
0&
0(
0=
1>
0%
1&
#964000
b1110001 #
1U
0)
00
#968000
b1110011 #
b1110010 #
0U
1T
1)
10
01
#970000
b100001 !
1N
0)
1A
1(
#972000
b1110011 #
1U
1)
00
#976000
b1110111 #
b1110101 #
b1110100 #
0U
0T
1S
0)
10
#980000
b100011 !
b100010 !
b1110101 #
1U
0N
1M
1)
00
0A
0@
0<
0>
1=
0(
0'
0&
1%
#984000
b1110111 #
b1110110 #
0U
1T
0)
10
#988000
b1110111 #
1U
1)
00
#990000
b100011 !
1N
0)
1A
1(
#992000
b1111111 #
b1111011 #
b1111001 #
b1111000 #
0U
0T
0S
1R
1)
10
11
#996000
b1111001 #
1U
0)
00
#1000000
b100111 !
b100101 !
b100100 !
b1111011 #
b1111010 #
0U
1T
0N
0M
1L
1)
10
01
0A
1@
1<
15
0;
1:
18
0(
1'
#1004000
b1111011 #
1U
0)
00
#1008000
b1111111 #
b1111101 #
b1111100 #
0U
0T
1S
1)
10
#1010000
b100101 !
1N
0)
1A
1(
#1012000
b1111101 #
1U
1)
00
#1016000
b1111111 #
b1111110 #
0U
1T
0)
10
#1020000
b100111 !
b100110 !
b1111111 #
1U
0N
1M
1)
00
0A
0@
0<
16
05
1>
0(
0'
1&
#1024000
b11 "
b10 "
b111111 #
b11111 #
b1111 #
b111 #
b11 #
b1 #
b0 #
0U
0T
0S
0R
0Q
0P
0O
0H
1G
0)
13
12
#1028000
b1 #
1U
1)
10
#1030000
b100111 !
1N
0)
17
0:
0>
0=
0&
0%
#1032000
b11 #
b10 #
0U
1T
1)
00
11
14
1$
#1036000
b11 #
1U
0)
10
04
0$
#1040000
b101111 !
b101011 !
b101001 !
b111 #
b101000 !
b101 #
b100 #
0U
0T
1S
0N
0M
0L
1K
1)
00
01
1<
07
15
1:
1=
0=
1@
1;
0:
1A
17
1%
1=
1>
0@
0;
1:
0%
1'
1(
0=
0>
1%
1&
0'
0%
0&
#1044000
b101 #
1U
0)
10
#1048000
b111 #
b110 #
0U
1T
1)
00
#1050000
b101001 !
1N
0)
0A
1@
0(
1'
#1052000
b111 #
1U
1)
10
#1056000
b1111 #
b1011 #
b1001 #
b1000 #
0U
0T
0S
1R
0)
00
03
#1060000
b101011 !
b101010 !
b1001 #
1U
0N
1M
1)
10
1A
1(
#1064000
b1011 #
b1010 #
0U
1T
0)
00
11
#1068000
b1011 #
1U
1)
10
#1070000
b101011 !
1N
0)
0A
0@
0<
1>
0(
0'
1&
#1072000
b1111 #
b1101 #
b1100 #
0U
0T
1S
1)
00
01
#1076000
b1101 #
1U
0)
10
#1080000
b101111 !
b101101 !
b101100 !
b1111 #
b1110 #
0U
1T
0N
0M
1L
1)
00
1A
1<
0:
1(
#1084000
b1111 #
1U
0)
10
#1088000
b11111 #
b10111 #
b10011 #
b10001 #
b10000 #
0U
0T
0S
0R
1Q
1)
00
#1090000
b101101 !
1N
0)
0A
1@
0(
1'
#1092000
b10001 #
1U
1)
10
#1096000
b10011 #
b10010 #
0U
1T
0)
00
11
#1100000
b101111 !
b101110 !
b10011 #
1U
0N
1M
1)
10
1A
1(
#1104000
b10111 #
b10101 #
b10100 #
0U
0T
1S
0)
00
01
#1108000
b10101 #
1U
1)
10
#1110000
b101111 !
1N
0)
0A
0@
0<
0>
1=
0(
0'
0&
1%
#1112000
b10111 #
b10110 #
0U
1T
1)
00
#1116000
b10111 #
1U
0)
10
#1120000
b111111 !
b110111 !
b110011 !
b11111 #
b110001 !
b11011 #
b110000 !
b11001 #
b11000 #
0U
0T
0S
1R
0N
0M
0L
0K
1J
1)
00
1<
07
19
06
05
1:
08
0=
1=
1@
0?
1A
17
09
0%
1?
1%
1'
1(
0@
0'
#1124000
b11001 #
1U
0)
10
#1128000
b11011 #
b11010 #
0U
1T
1)
00
11
#1130000
b110001 !
1N
0)
0A
1@
0(
1'
#1132000
b11011 #
1U
1)
10
#1136000
b11111 #
b11101 #
b11100 #
0U
0T
1S
0)
00
01
#1140000
b110011 !
b110010 !
b11101 #
1U
0N
1M
1)
10
1A
1(
#1144000
b11111 #
b11110 #
0U
1T
0)
00
#1148000
b11111 #
1U
1)
10
#1150000
b110011 !
1N
0)
0A
0@
0<
1>
0(
0'
1&
#1152000
b111111 #
b101111 #
b100111 #
b100011 #
b100001 #
b100000 #
0U
0T
0S
0R
0Q
1P
1)
00
13
02
#1156000
b100001 #
1U
0)
10
#1160000
b110111 !
b110101 !
b110100 !
b100011 #
b100010 #
0U
1T
0N
0M
1L
1)
00
11
1A
1<
15
0:
18
0A
07
19
1(
1@
0?
0(
0@
0<
1'
0>
0=
0'
0&
0%
#1164000
b100011 #
1U
0)
10
#1168000
b100111 #
b100101 #
b100100 #
0U
0T
1S
1)
00
01
#1170000
b110101 !
1N
0)
1A
1(
#1172000
b100101 #
1U
1)
10
#1176000
b100111 #
b100110 #
0U
1T
0)
00
#1180000
b110111 !
b110110 !
b100111 #
1U
0N
1M
1)
10
0A
1@
16
05
0(
1'
#1184000
b101111 #
b101011 #
b101001 #
b101000 #
0U
0T
0S
1R
0)
00
03
#1188000
b101001 #
1U
1)
10
#1190000
b110111 !
1N
0)
1A
1(
#1192000
b101011 #
b101010 #
0U
1T
1)
00
11
#1196000
b101011 #
1U
0)
10
