lab1/simulation/qsim/gA6_lab1.msim.vcd
$comment
	File created using the following command:
		vcd file gA6_lab1.msim.vcd -direction
$end
$date
	Wed Nov 01 16:20:05 2017
$end
$version
	ModelSim Version 10.1d
$end
$timescale
	1ps
$end
$scope module gA6_lab1_vlg_vec_tst $end
$var reg 6 ! A [5:0] $end
$var reg 7 " B [6:0] $end
$var reg 7 # C [6:0] $end
$var wire 1 $ AeqB $end
$var wire 1 % Afloor13 [2] $end
$var wire 1 & Afloor13 [1] $end
$var wire 1 ' Afloor13 [0] $end
$var wire 1 ( Amod13 [3] $end
$var wire 1 ) Amod13 [2] $end
$var wire 1 * Amod13 [1] $end
$var wire 1 + Amod13 [0] $end
$var wire 1 , sampler $end
$scope module i1 $end
$var wire 1 - gnd $end
$var wire 1 . vcc $end
$var wire 1 / unknown $end
$var tri1 1 0 devclrn $end
$var tri1 1 1 devpor $end
$var tri1 1 2 devoe $end
$var wire 1 3 inst1|inst6~combout $end
$var wire 1 4 inst1|inst11~0_combout $end
$var wire 1 5 inst1|inst11~1_combout $end
$var wire 1 6 inst1|inst11~2_combout $end
$var wire 1 7 inst1|inst11~3_combout $end
$var wire 1 8 inst|inst|inst6|inst1~0_combout $end
$var wire 1 9 inst|inst|inst6|inst1~combout $end
$var wire 1 : inst|inst|inst7|inst1~combout $end
$var wire 1 ; inst|inst|inst7|inst3~combout $end
$var wire 1 < inst|inst|inst6|inst3~1_combout $end
$var wire 1 = inst|inst|inst6|inst3~0_combout $end
$var wire 1 > inst|inst|inst6|inst3~2_combout $end
$var wire 1 ? inst|inst5|inst1|inst2~0_combout $end
$var wire 1 @ inst|inst5|inst2|inst~combout $end
$var wire 1 A inst|inst5|inst3|inst3~0_combout $end
$var wire 1 B inst|inst5|inst3|inst3~combout $end
$var wire 1 C inst|inst5|inst2|inst3~combout $end
$var wire 1 D inst|inst5|inst1|inst3~combout $end
$var wire 1 E inst|inst5|inst|inst~combout $end
$var wire 1 F A~combout [5] $end
$var wire 1 G A~combout [4] $end
$var wire 1 H A~combout [3] $end
$var wire 1 I A~combout [2] $end
$var wire 1 J A~combout [1] $end
$var wire 1 K A~combout [0] $end
$var wire 1 L B~combout [6] $end
$var wire 1 M B~combout [5] $end
$var wire 1 N B~combout [4] $end
$var wire 1 O B~combout [3] $end
$var wire 1 P B~combout [2] $end
$var wire 1 Q B~combout [1] $end
$var wire 1 R B~combout [0] $end
$var wire 1 S C~combout [6] $end
$var wire 1 T C~combout [5] $end
$var wire 1 U C~combout [4] $end
$var wire 1 V C~combout [3] $end
$var wire 1 W C~combout [2] $end
$var wire 1 X C~combout [1] $end
$var wire 1 Y C~combout [0] $end
$upscope $end
$upscope $end
$enddefinitions $end
#0
$dumpvars
b0 !
bx "
bx #
x$
0'
0&
0%
0+
0*
0)
0(
x,
0-
1.
x/
10
11
12
x3
x4
x5
x6
x7
08
09
0:
0;
0<
0=
0>
0?
0@
0A
0B
0C
0D
0E
0K
0J
0I
0H
0G
0F
xR
xQ
xP
xO
xN
xM
xL
xY
xX
xW
xV
xU
xT
xS
$end
#10000
b1 !
1K
0,
1E
1+
#20000
b11 !
b10 !
0K
1J
1,
0E
1D
0+
1*
#30000
b11 !
1K
0,
1E
1+
#40000
b111 !
b101 !
b100 !
0K
0J
1I
1,
0E
0D
1A
1@
1C
0+
0*
1)
#50000
b101 !
1K
0,
1E
1+
#60000
b111 !
b110 !
0K
1J
1,
0E
1D
0+
1*
#70000
b111 !
1K
0,
1E
1+
#80000
b1111 !
b1011 !
b1001 !
b1000 !
0K
0J
0I
1H
1,
0E
0D
0A
0@
1B
0C
0+
0*
1(
0)
#90000
b1001 !
1K
0,
1E
1+
#100000
b1011 !
b1010 !
0K
1J
1,
0E
1D
1=
0+
1*
#110000
b1011 !
1K
0,
1E
1+
#120000
b1111 !
b1101 !
b1100 !
0K
0J
1I
1,
0E
0D
0=
1<
1A
1@
18
1C
0+
0*
1)
#130000
b1101 !
1K
0,
1>
0@
1'
0C
0B
0)
0(
#140000
b1111 !
b1110 !
0K
1J
1,
0>
1=
1D
1@
1E
1>
0'
1C
1B
0D
0@
1*
1+
1'
0C
0B
1)
1(
0*
0)
0(
#150000
b1111 !
1K
0,
0E
1D
0+
1*
#160000
b11111 !
b10111 !
b10011 !
b10001 !
b10000 !
0K
0J
0I
0H
1G
1,
1?
0>
0=
0<
19
1@
08
1B
0B
0D
0@
0?
1E
1>
1;
09
0'
1(
1B
1@
1?
0;
0(
0*
1+
1'
1&
0B
1D
1(
0&
0(
1*
#170000
b10001 !
1K
0,
0E
0D
0?
1C
0+
0*
1)
#180000
b10011 !
b10010 !
0K
1J
1,
1E
1+
#190000
b10011 !
1K
0,
0E
1D
0+
1*
#200000
b10111 !
b10101 !
b10100 !
0K
0J
1I
1,
1E
1?
0@
1+
#210000
b10101 !
1K
0,
0E
0D
0?
0C
1B
0+
0*
0)
1(
#220000
b10111 !
b10110 !
0K
1J
1,
1E
1+
#230000
b10111 !
1K
0,
0E
1D
0+
1*
#240000
b11111 !
b11011 !
b11001 !
b11000 !
0K
0J
0I
1H
1,
1E
1?
1@
0B
1B
1+
0(
1(
#250000
b11001 !
1K
0,
0E
0D
0?
1C
0+
0*
1)
#260000
b11011 !
b11010 !
0K
1J
1,
1E
1=
19
0E
0>
0A
1;
1+
1A
0@
0B
0+
0'
1&
0C
0(
0)
#270000
b11011 !
1K
0,
1E
1+
#280000
b11111 !
b11101 !
b11100 !
0K
0J
1I
1,
0E
1D
1?
0=
1<
09
0A
1@
18
1A
0;
19
0+
1*
1B
0D
0?
0A
1;
0&
1C
0B
1D
1?
1(
0*
1&
0C
1)
0(
1*
0)
#290000
b11101 !
1K
0,
1E
1+
#300000
b11111 !
b11110 !
0K
1J
1,
0E
0D
0?
1=
1C
0+
0*
1)
#310000
b11111 !
1K
0,
1E
1+
#320000
b111111 !
b101111 !
b100111 !
b100011 !
b100001 !
b100000 !
0K
0J
0I
0H
0G
1F
1,
1D
1?
1>
0=
0<
09
08
1B
0;
1:
0C
0E
0>
1;
0:
1*
1'
1(
0&
1%
1A
0@
0)
0+
0'
1&
0%
0B
1C
0(
1)
#330000
b100001 !
1K
0,
1E
1+
#340000
b100011 !
b100010 !
0K
1J
1,
0E
0D
0?
0C
1B
0+
0*
0)
1(
#350000
b100011 !
1K
0,
1E
1+
#360000
b100111 !
b100101 !
b100100 !
0K
0J
1I
1,
0E
1D
1?
1=
0A
1@
18
0+
1*
#370000
b100101 !
1K
0,
1E
1+
#380000
b100111 !
b100110 !
0K
1J
1,
0E
0D
0?
0=
1<
1C
0+
0*
1)
#390000
b100111 !
1K
0,
1>
0@
1'
0C
0B
0)
0(
#400000
b101111 !
b101011 !
b101001 !
b101000 !
0K
0J
0I
1H
1,
1?
0>
1=
1@
1B
0B
1D
1A
0@
1E
1>
0'
1(
1B
1C
0D
0A
1@
0(
1*
1+
1'
0B
0C
1(
1)
0*
0(
0)
#410000
b101001 !
1K
0,
0E
1D
0+
1*
#420000
b101011 !
b101010 !
0K
1J
1,
1E
1+
#430000
b101011 !
1K
0,
0E
0D
0?
1C
0+
0*
1)
#440000
b101111 !
b101101 !
b101100 !
0K
0J
1I
1,
1E
1?
0@
1+
#450000
b101101 !
1K
0,
0E
1D
0+
1*
#460000
b101111 !
b101110 !
0K
1J
1,
1E
1+
#470000
b101111 !
1K
0,
0E
0D
0?
0C
1B
0+
0*
0)
1(
#480000
b111111 !
b110111 !
b110011 !
b110001 !
b110000 !
0K
0J
0I
0H
1G
1,
1?
0>
0=
0<
19
1@
08
0B
1B
1D
1E
1>
0;
1:
09
0'
0(
1;
0:
1(
1*
1+
1'
0&
1%
0D
1&
0%
0*
#490000
b110001 !
1K
0,
0E
1D
0+
1*
#500000
b110011 !
b110010 !
0K
1J
1,
1E
1+
#510000
b110011 !
1K
0,
0E
0D
0?
1C
0+
0*
1)
#520000
b110111 !
b110101 !
b110100 !
0K
0J
1I
1,
1E
1?
1=
0@
18
0E
0>
19
1+
1D
0;
1:
0+
0'
0D
0?
1*
0&
1%
0C
0B
0*
0)
0(
#530000
b110101 !
1K
0,
1E
1+
#540000
b110111 !
b110110 !
0K
1J
1,
0E
1D
0=
1<
0+
1*
#550000
b110111 !
1K
0,
1E
1+
#560000
b111111 !
b111011 !
b111001 !
b111000 !
0K
0J
0I
1H
1,
0E
0D
1=
1@
1B
1C
0B
0+
0*
1(
1)
0(
#570000
b111001 !
1K
0,
1E
1+
#580000
b111011 !
b111010 !
0K
1J
1,
0E
1D
0+
1*
#590000
b111011 !
1K
0,
1E
1+
#600000
b111111 !
b111101 !
b111100 !
0K
0J
1I
1,
0E
0D
0@
0C
1B
0+
0*
0)
1(
#610000
b111101 !
1K
0,
1E
1+
#620000
b111111 !
b111110 !
0K
1J
1,
0E
1D
0+
1*
#630000
b111111 !
1K
0,
1E
1+
