lab4/simulation/qsim/gA6_lab4.msim.vcd
$comment
	File created using the following command:
		vcd file gA6_lab4.msim.vcd -direction
$end
$date
	Tue Nov 21 21:24:15 2017
$end
$version
	ModelSim Version 10.1d
$end
$timescale
	1ps
$end
$scope module gA6_lab4_vlg_vec_tst $end
$var reg 1 ! clk $end
$var reg 6 " hand_sum [5:0] $end
$var reg 1 # legal_num $end
$var reg 6 $ new_card [5:0] $end
$var reg 1 % request_deal $end
$var reg 1 & rst $end
$var wire 1 ' ace_out $end
$var wire 1 ( fsm_state [1] $end
$var wire 1 ) fsm_state [0] $end
$var wire 1 * legal_play $end
$var wire 1 + out_1 [5] $end
$var wire 1 , out_1 [4] $end
$var wire 1 - out_1 [3] $end
$var wire 1 . out_1 [2] $end
$var wire 1 / out_1 [1] $end
$var wire 1 0 out_1 [0] $end
$var wire 1 1 out_2 [5] $end
$var wire 1 2 out_2 [4] $end
$var wire 1 3 out_2 [3] $end
$var wire 1 4 out_2 [2] $end
$var wire 1 5 out_2 [1] $end
$var wire 1 6 out_2 [0] $end
$var wire 1 7 out_3 [5] $end
$var wire 1 8 out_3 [4] $end
$var wire 1 9 out_3 [3] $end
$var wire 1 : out_3 [2] $end
$var wire 1 ; out_3 [1] $end
$var wire 1 < out_3 [0] $end
$var wire 1 = out_4 $end
$var wire 1 > out_5 $end
$var wire 1 ? rand_enable $end
$var wire 1 @ stack_enable $end
$var wire 1 A sampler $end
$scope module i1 $end
$var wire 1 B gnd $end
$var wire 1 C vcc $end
$var wire 1 D unknown $end
$var tri1 1 E devclrn $end
$var tri1 1 F devpor $end
$var tri1 1 G devoe $end
$var wire 1 H inst|Mod0|auto_generated|divider|divider|op_2~0_combout $end
$var wire 1 I inst|Mod0|auto_generated|divider|divider|op_2~2_combout $end
$var wire 1 J inst|Mod0|auto_generated|divider|divider|op_2~4_combout $end
$var wire 1 K inst|Mod0|auto_generated|divider|divider|op_2~6_combout $end
$var wire 1 L inst|Mod0|auto_generated|divider|divider|op_3~0_combout $end
$var wire 1 M inst|Mod0|auto_generated|divider|divider|op_3~2_combout $end
$var wire 1 N inst|Mod0|auto_generated|divider|divider|op_3~4_combout $end
$var wire 1 O inst|Mod0|auto_generated|divider|divider|op_3~6_combout $end
$var wire 1 P inst|Mod0|auto_generated|divider|divider|op_3~8_combout $end
$var wire 1 Q inst|Mod0|auto_generated|divider|divider|op_4~2_combout $end
$var wire 1 R inst|Mod0|auto_generated|divider|divider|op_4~4_combout $end
$var wire 1 S inst|Mod0|auto_generated|divider|divider|op_4~6_combout $end
$var wire 1 T inst|Mod0|auto_generated|divider|divider|op_4~8_combout $end
$var wire 1 U inst|Mod0|auto_generated|divider|divider|op_4~10_combout $end
$var wire 1 V inst|Mod0|auto_generated|divider|divider|StageOut[21]~32_combout $end
$var wire 1 W inst|Mod0|auto_generated|divider|divider|StageOut[20]~34_combout $end
$var wire 1 X inst|Mod0|auto_generated|divider|divider|StageOut[19]~36_combout $end
$var wire 1 Y inst|Mod0|auto_generated|divider|divider|StageOut[18]~38_combout $end
$var wire 1 Z inst|Equal0~0_combout $end
$var wire 1 [ inst|Mod0|auto_generated|divider|divider|op_2~1 $end
$var wire 1 \ inst|Mod0|auto_generated|divider|divider|op_2~3 $end
$var wire 1 ] inst|Mod0|auto_generated|divider|divider|op_2~5 $end
$var wire 1 ^ inst|Mod0|auto_generated|divider|divider|op_2~7 $end
$var wire 1 _ inst|Mod0|auto_generated|divider|divider|op_2~8_combout $end
$var wire 1 ` inst|Mod0|auto_generated|divider|divider|StageOut[21]~33_combout $end
$var wire 1 a inst|Mod0|auto_generated|divider|divider|StageOut[20]~35_combout $end
$var wire 1 b inst|Mod0|auto_generated|divider|divider|StageOut[19]~37_combout $end
$var wire 1 c inst|Mod0|auto_generated|divider|divider|StageOut[18]~39_combout $end
$var wire 1 d inst|Mod0|auto_generated|divider|divider|op_3~1 $end
$var wire 1 e inst|Mod0|auto_generated|divider|divider|op_3~3 $end
$var wire 1 f inst|Mod0|auto_generated|divider|divider|op_3~5 $end
$var wire 1 g inst|Mod0|auto_generated|divider|divider|op_3~7 $end
$var wire 1 h inst|Mod0|auto_generated|divider|divider|op_3~9 $end
$var wire 1 i inst|Mod0|auto_generated|divider|divider|op_3~10_combout $end
$var wire 1 j inst|Mod0|auto_generated|divider|divider|StageOut[28]~44_combout $end
$var wire 1 k inst|Mod0|auto_generated|divider|divider|StageOut[27]~45_combout $end
$var wire 1 l inst|Mod0|auto_generated|divider|divider|StageOut[26]~40_combout $end
$var wire 1 m inst|Mod0|auto_generated|divider|divider|StageOut[25]~41_combout $end
$var wire 1 n inst|Mod0|auto_generated|divider|divider|StageOut[24]~43_combout $end
$var wire 1 o inst|Mod0|auto_generated|divider|divider|op_4~1 $end
$var wire 1 p inst|Mod0|auto_generated|divider|divider|op_4~3 $end
$var wire 1 q inst|Mod0|auto_generated|divider|divider|op_4~5 $end
$var wire 1 r inst|Mod0|auto_generated|divider|divider|op_4~7 $end
$var wire 1 s inst|Mod0|auto_generated|divider|divider|op_4~9 $end
$var wire 1 t inst|Mod0|auto_generated|divider|divider|op_4~11 $end
$var wire 1 u inst|Mod0|auto_generated|divider|divider|op_4~12_combout $end
$var wire 1 v inst|Mod0|auto_generated|divider|divider|StageOut[24]~42_combout $end
$var wire 1 w inst|Mod0|auto_generated|divider|divider|StageOut[31]~47_combout $end
$var wire 1 x inst|Mod0|auto_generated|divider|divider|StageOut[25]~53_combout $end
$var wire 1 y inst|Mod0|auto_generated|divider|divider|StageOut[32]~48_combout $end
$var wire 1 z inst|Mod0|auto_generated|divider|divider|StageOut[26]~52_combout $end
$var wire 1 { inst|Mod0|auto_generated|divider|divider|StageOut[33]~46_combout $end
$var wire 1 | inst|Add0~0_combout $end
$var wire 1 } inst|Mod0|auto_generated|divider|divider|StageOut[27]~55_combout $end
$var wire 1 ~ inst|Mod0|auto_generated|divider|divider|StageOut[34]~50_combout $end
$var wire 1 !! inst|Mod0|auto_generated|divider|divider|StageOut[28]~54_combout $end
$var wire 1 "! inst|Mod0|auto_generated|divider|divider|StageOut[35]~51_combout $end
$var wire 1 #! inst|LessThan0~1_combout $end
$var wire 1 $! inst|out_4~0_combout $end
$var wire 1 %! inst|out_2[0]~1 $end
$var wire 1 &! inst|out_2[1]~3 $end
$var wire 1 '! inst|out_2[2]~5 $end
$var wire 1 (! inst|out_2[3]~7 $end
$var wire 1 )! inst|out_2[4]~9 $end
$var wire 1 *! inst|out_2[5]~10_combout $end
$var wire 1 +! inst|out_2[2]~4_combout $end
$var wire 1 ,! inst|out_2[3]~6_combout $end
$var wire 1 -! inst|out_2[4]~8_combout $end
$var wire 1 .! inst|out_3[5]~0_combout $end
$var wire 1 /! inst|out_3[5]~1_combout $end
$var wire 1 0! inst|Add2~0_combout $end
$var wire 1 1! inst|Add2~1 $end
$var wire 1 2! inst|Add2~2_combout $end
$var wire 1 3! inst|LessThan2~1_combout $end
$var wire 1 4! inst|Add2~3 $end
$var wire 1 5! inst|Add2~4_combout $end
$var wire 1 6! inst|Add2~5 $end
$var wire 1 7! inst|Add2~6_combout $end
$var wire 1 8! inst|Add2~7 $end
$var wire 1 9! inst|Add2~8_combout $end
$var wire 1 :! inst|LessThan2~2_combout $end
$var wire 1 ;! inst|out_2[1]~2_combout $end
$var wire 1 <! inst|ace_out~1_combout $end
$var wire 1 =! inst|ace_out~2_combout $end
$var wire 1 >! inst|LessThan2~3_combout $end
$var wire 1 ?! inst|ace_out~3_combout $end
$var wire 1 @! clk~combout $end
$var wire 1 A! request_deal~combout $end
$var wire 1 B! inst1|dealer:state[1]~0_combout $end
$var wire 1 C! rst~combout $end
$var wire 1 D! inst1|dealer:state[1]~regout $end
$var wire 1 E! legal_num~combout $end
$var wire 1 F! inst1|dealer:state[0]~0_combout $end
$var wire 1 G! inst1|dealer:state[0]~regout $end
$var wire 1 H! inst1|Mux0~0_combout $end
$var wire 1 I! inst1|rand_enable~regout $end
$var wire 1 J! inst1|Mux1~0_combout $end
$var wire 1 K! inst1|stack_enable~regout $end
$var wire 1 L! inst|Mod0|auto_generated|divider|divider|op_4~0_combout $end
$var wire 1 M! inst|Mod0|auto_generated|divider|divider|StageOut[30]~49_combout $end
$var wire 1 N! inst|Add0~1_combout $end
$var wire 1 O! inst|Equal0~1_combout $end
$var wire 1 P! inst|out_1[3]~3_combout $end
$var wire 1 Q! inst|out_1[2]~4_combout $end
$var wire 1 R! inst|out_1[1]~0_combout $end
$var wire 1 S! inst|LessThan0~0_combout $end
$var wire 1 T! inst|out_1[0]~1_combout $end
$var wire 1 U! inst|out_1[0]~2_combout $end
$var wire 1 V! inst|out_2[0]~0_combout $end
$var wire 1 W! hand_sum~combout [5] $end
$var wire 1 X! hand_sum~combout [4] $end
$var wire 1 Y! hand_sum~combout [3] $end
$var wire 1 Z! hand_sum~combout [2] $end
$var wire 1 [! hand_sum~combout [1] $end
$var wire 1 \! hand_sum~combout [0] $end
$var wire 1 ]! new_card~combout [5] $end
$var wire 1 ^! new_card~combout [4] $end
$var wire 1 _! new_card~combout [3] $end
$var wire 1 `! new_card~combout [2] $end
$var wire 1 a! new_card~combout [1] $end
$var wire 1 b! new_card~combout [0] $end
$upscope $end
$upscope $end
$enddefinitions $end
#0
$dumpvars
0!
bx "
0#
bx $
0%
0&
x'
0)
0(
x*
x0
x/
x.
x-
0,
0+
x6
x5
x4
x3
x2
x1
x<
x;
x:
x9
x8
x7
x=
x>
0?
0@
xA
0B
1C
xD
1E
1F
1G
xH
xI
xJ
xK
xL
xM
xN
xO
xP
xQ
xR
xS
xT
xU
xV
xW
xX
xY
xZ
x[
x\
x]
x^
x_
x`
xa
xb
xc
xd
xe
xf
xg
xh
xi
xj
xk
xl
xm
xn
xo
xp
xq
xr
xs
xt
xu
xv
xw
xx
xy
xz
x{
x|
x}
x~
x!!
x"!
x#!
x$!
x%!
x&!
x'!
x(!
x)!
x*!
x+!
x,!
x-!
x.!
x/!
x0!
x1!
x2!
x3!
x4!
x5!
x6!
x7!
x8!
x9!
x:!
x;!
x<!
x=!
x>!
x?!
0@!
0A!
0B!
0C!
0D!
0E!
1F!
0G!
0H!
0I!
0J!
0K!
xL!
xM!
xN!
xO!
xP!
xQ!
xR!
xS!
xT!
xU!
xV!
x\!
x[!
xZ!
xY!
xX!
xW!
xb!
xa!
x`!
x_!
x^!
x]!
$end
#10000
1!
1#
1@!
1E!
0A
1G!
1)
#20000
0!
0@!
1A
#30000
1!
1@!
0A
#40000
0!
0@!
1A
#50000
1%
1!
1A!
1@!
0A
0F!
1B!
#60000
0!
0@!
1A
#70000
1!
1@!
0A
0G!
1D!
1H!
1F!
0)
1(
#80000
0!
0@!
1A
#90000
1!
1@!
0A
1I!
1G!
1J!
0H!
0F!
0B!
1?
1)
#100000
1&
0!
1C!
0@!
1A
0I!
0G!
0D!
0J!
0?
0)
0(
#110000
1!
1@!
0A
#120000
0&
0!
0C!
0@!
1A
#130000
1!
1@!
0A
#140000
0!
0@!
1A
#150000
1!
1@!
0A
#160000
0!
0@!
1A
#170000
1!
1@!
0A
#180000
0!
0@!
1A
#190000
1!
1@!
0A
#200000
0!
0@!
1A
#210000
1!
1@!
0A
#220000
0!
0@!
1A
#230000
1!
1@!
0A
#240000
0!
0@!
1A
#250000
1!
1@!
0A
#260000
0!
0@!
1A
#270000
1!
1@!
0A
#280000
0!
0@!
1A
#290000
1!
1@!
0A
#300000
0%
0!
0A!
0@!
1A
1F!
#310000
1!
1@!
0A
1G!
1)
#320000
1&
0!
1C!
0@!
1A
0G!
0)
#330000
1!
1@!
0A
#340000
0&
0!
0C!
0@!
1A
#350000
1!
1@!
0A
1G!
1)
#360000
0#
0!
0E!
0@!
1A
#370000
1!
1@!
0A
#380000
0!
0@!
1A
#390000
1!
1@!
0A
#400000
0!
0@!
1A
#410000
1!
1@!
0A
#420000
0!
0@!
1A
#430000
1!
1@!
0A
#440000
0!
0@!
1A
#450000
1!
1@!
0A
#460000
0!
0@!
1A
#470000
1#
1!
1E!
1@!
0A
#480000
0!
0@!
1A
#490000
1!
1@!
0A
#500000
1%
0!
1A!
0@!
1A
0F!
1B!
#510000
1!
1@!
0A
0G!
1D!
1H!
1F!
0)
1(
#520000
0!
0@!
1A
#530000
1!
1@!
0A
1I!
1G!
1J!
0H!
0F!
0B!
1?
1)
#540000
1&
0!
1C!
0@!
1A
0I!
0G!
0D!
0J!
0?
0)
0(
#550000
1!
1@!
0A
#560000
0!
0@!
1A
#570000
0&
1!
0C!
1@!
0A
#580000
0!
0@!
1A
#590000
1!
1@!
0A
#600000
0!
0@!
1A
#610000
1!
1@!
0A
#620000
0!
0@!
1A
#630000
1!
1@!
0A
#640000
0!
0@!
1A
#650000
1!
1@!
0A
#660000
0!
0@!
1A
#670000
1!
1@!
0A
#680000
0!
0@!
1A
#690000
1!
1@!
0A
#700000
0!
0@!
1A
#710000
1!
1@!
0A
#720000
0!
0@!
1A
#730000
1!
1@!
0A
#740000
0!
0@!
1A
#750000
1!
1@!
0A
#760000
0!
0@!
1A
#770000
1!
1@!
0A
#780000
0!
0@!
1A
#790000
1!
1@!
0A
#800000
0#
0!
0E!
0@!
1A
#810000
1!
1@!
0A
#820000
0!
0@!
1A
#830000
1!
1@!
0A
#840000
0!
0@!
1A
#850000
1!
1@!
0A
#860000
0!
0@!
1A
#870000
1!
1@!
0A
#880000
0!
0@!
1A
#890000
1!
1@!
0A
#900000
0!
0@!
1A
#910000
1!
1@!
0A
#920000
0%
0!
0A!
0@!
1A
1F!
#930000
1!
1@!
0A
1G!
1)
#940000
0!
0@!
1A
#950000
1!
1@!
0A
#960000
0!
0@!
1A
#970000
1!
1@!
0A
#980000
0!
0@!
1A
#990000
1!
1@!
0A
